(0.050000000000004638;-0.5936930061791944) (0.099999999999993927;-0.95008142607719448) (0.15000000000000924;-1.2601824279011975) 
(0.20000000000005924;-1.5497310510242204) (0.25000000000010925;-1.8276072706708868) (0.30000000000015925;-2.0979464043225349) 
(0.35000000000020925;-2.3630134310461757) (0.40000000000025926;-2.6241844781572645) (0.45000000000030926;-2.8823585542489929) 
(0.50000000000035927;-3.1381554362906385) (0.55000000000013172;-3.3920205351796677) (0.59999999999990417;-3.6442847315040621) 
(0.64999999999967661;-3.8952005604875821) (0.69999999999944906;-4.144965146769624) (0.74999999999922151;-4.3937353161036343) 
(0.79999999999899396;-4.6416378826332352) (0.84999999999876641;-4.8887768495752493) (0.89999999999853886;-5.1352385719944005) 
(0.94999999999831131;-5.3810955368616087) (0.99999999999808376;-5.6264091822816011) (1.0499999999984113;-5.8712320348396849) 
(1.0999999999987389;-6.1156093538792859) (1.1499999999990664;-6.3595804132078033) (1.199999999999394;-6.6031795121306942) 
(1.2499999999997216;-6.8464367816361884) (1.3000000000000491;-7.0893788336031269) (1.3500000000003767;-7.3320292883402427) 
(1.4000000000007042;-7.5744092068337086) (1.4500000000010318;-7.8165374476401066) (1.5000000000013594;-8.0584309636595233) 
(1.5500000000016869;-8.3001050505462253) (1.6000000000020145;-8.541573555916969) (1.650000000002342;-8.7828490565537489) 
(1.7000000000026696;-9.023943009303423) (1.7500000000029972;-9.2648658802238693) (1.8000000000033247;-9.5056272556346144) 
(1.8500000000036523;-9.7462359380326102) (1.9000000000039798;-9.9867000292818524) (1.9500000000043074;-10.227027003051093) 
(2.000000000004635;-10.46722376812583) (2.0500000000049625;-10.707296723939374) (2.1000000000052901;-10.94725180944377) 
(2.1500000000056176;-11.187094546256706) (2.2000000000059452;-11.426830076869869) (2.2500000000062728;-11.666463198582504) 
(2.3000000000066003;-11.905998393721497) (2.3500000000069279;-12.145439856625138) (2.4000000000072554;-12.384791517797543) 
(2.450000000007583;-12.624057065582775) (2.5000000000079106;-12.863239965658035) (2.5500000000082381;-13.102343478603865) 
(2.6000000000085657;-13.341370675774916) (2.6500000000088932;-13.580324453664749) (2.7000000000092208;-13.819207546932866) 
(2.7500000000095484;-14.058022540240467) (2.8000000000098759;-14.296771879023858) (2.8500000000102035;-14.535457879317747) 
(2.900000000010531;-14.774082736727079) (2.9500000000108586;-15.012648534634337) (3.0000000000111862;-15.251157251719315) 
(3.0500000000115137;-15.489610768860114) (3.1000000000118413;-15.728010875473977) (3.1500000000121688;-15.966359275352835) 
(3.2000000000124964;-16.204657592040586) (3.250000000012824;-16.442907373795077) (3.3000000000131515;-16.681110098171779) 
(3.3500000000134791;-16.919267176264473) (3.4000000000138066;-17.157379956632571) (3.4500000000141342;-17.395449728941863) 
(3.5000000000144618;-17.633477727345461) (3.5500000000147893;-17.871465133624366) (3.6000000000151169;-18.109413080109221) 
(3.6500000000154444;-18.347322652401591) (3.700000000015772;-18.585194891910664) (3.7500000000160996;-18.823030798219119) 
(3.8000000000164271;-19.060831331294196) (3.8500000000167547;-19.298597413552883) (3.9000000000170822;-19.536329931796001) 
(3.9500000000174098;-19.774029739018168) (4.0000000000177369;-20.011697656104467) (4.050000000015844;-20.24933447342249) 
(4.1000000000139512;-20.486940952316186) (4.1500000000120583;-20.724517826510159) (4.2000000000101654;-20.962065803428775) 
(4.2500000000082725;-21.199585565439591) (4.3000000000063796;-21.437077771021819) (4.3500000000044867;-21.674543055869066) 
(4.4000000000025938;-21.911982033928648) (4.450000000000701;-22.149395298381705) (4.4999999999988081;-22.386783422570279) 
(4.5499999999969152;-22.624146960871524) (4.5999999999950223;-22.86148644952538) (4.6499999999931294;-23.098802407416638) 
(4.6999999999912365;-23.336095336816815) (4.7499999999893436;-23.573365724085011) (4.7999999999874507;-23.81061404033354) 
(4.8499999999855579;-24.047840742058604) (4.899999999983665;-24.285046271738576) (4.9499999999817721;-24.522231058402227) 
(4.9999999999798792;-24.759395518168311) (5.0499999999779863;-24.996540054758423) (5.0999999999760934;-25.233665059984201) 
(5.1499999999742005;-25.470770914212409) (5.1999999999723077;-25.707857986804918) (5.2499999999704148;-25.944926636540092) 
(5.2999999999685219;-26.181977212012924) (5.349999999966629;-26.419010052017306) (5.3999999999647361;-26.656025485909257) 
(5.4499999999628432;-26.893023833955056) (5.4999999999609503;-27.130005407662356) (5.5499999999590575;-27.366970510096284) 
(5.5999999999571646;-27.603919436182373) (5.6499999999552717;-27.840852472995131) (5.6999999999533788;-28.077769900034582) 
(5.7499999999514859;-28.314671989489899) (5.799999999949593;-28.551559006492525) (5.8499999999477001;-28.788431209358254) 
(5.8999999999458073;-29.025288849818256) (5.9499999999439144;-29.26213217324182) (5.9999999999420215;-29.498961418847944) 
(6.0499999999401286;-29.735776819910079) (6.0999999999382357;-29.97257860395116) (6.1499999999363428;-30.209366992930981) 
(6.1999999999344499;-30.446142203426334) (6.2499999999325571;-30.682904446803214) (6.2999999999306642;-30.91965392938349) 
(6.3499999999287713;-31.156390852603227) (6.3999999999268784;-31.393115413166225) (6.4499999999249855;-31.629827803191237) 
(6.4999999999230926;-31.866528210353028) (6.5499999999211997;-32.103216818018588) (6.5999999999193069;-32.339893805378018) 
(6.649999999917414;-32.576559347569678) (6.6999999999155211;-32.813213615802894) (6.7499999999136282;-33.049856777473181) 
(6.7999999999117353;-33.286488996275942) (6.8499999999098424;-33.523110432313132) (6.8999999999079495;-33.759721242199554) 
(6.9499999999060567;-33.996321579161673) (6.9999999999041638;-34.232911593135768) (7.0499999999022709;-34.469491430861694) 
(7.099999999900378;-34.706061235971845) (7.1499999998984851;-34.94262114907886) (7.1999999998965922;-35.179171307859988) 
(7.2499999998946993;-35.415711847138247) (7.2999999998928065;-35.65224289896053) (7.3499999998909136;-35.888764592672999) 
(7.3999999998890207;-36.125277054995266) (7.4499999998871278;-36.361780410089388) (7.4999999998852349;-36.598274779630493) 
(7.549999999883342;-36.834760282869645) (7.5999999998814491;-37.071237036701461) (7.6499999998795563;-37.307705155722388) 
(7.6999999998776634;-37.544164752293298) (7.7499999998757705;-37.780615936595545) (7.7999999998738776;-38.017058816687459) 
(7.8499999998719847;-38.253493498558626) (7.8999999998700918;-38.489920086182764) (7.9499999998681989;-38.726338681567455) 
(7.9999999998663061;-38.962749384804049) (8.0499999998644132;-39.19915229411599) (8.0999999998625203;-39.435547505903621) 
(8.1499999998606274;-39.671935114790259) (8.1999999998587345;-39.908315213664856) (8.2499999998568416;-40.14468789372458) 
(8.2999999998549487;-40.381053244515321) (8.3499999998530559;-40.617411353971022) (8.399999999851163;-40.853762308453618) 
(8.4499999998492701;-41.090106192787999) (8.4999999998473772;-41.326443090300224) (8.5499999998454843;-41.562773082852246) 
(8.5999999998435914;-41.799096250875017) (8.6499999998416985;-42.035412673402291) (8.6999999998398057;-42.271722428103196) 
(8.7499999998379128;-42.50802559131246) (8.7999999998360199;-42.744322238062239) (8.849999999834127;-42.980612442110299) 
(8.8999999998322341;-43.21689627596934) (8.9499999998303412;-43.453173810934828) (8.9999999998284483;-43.689445117111859) 
(9.0499999998265555;-43.925710263441118) (9.0999999998246626;-44.161969317725571) (9.1499999998227697;-44.398222346655061) 
(9.1999999998208768;-44.634469415829685) (9.2499999998189839;-44.870710589784288) (9.299999999817091;-45.10694593201162) 
(9.3499999998151981;-45.343175504983243) (9.3999999998133053;-45.579399370172688) (9.4499999998114124;-45.815617588076428) 
(9.4999999998095195;-46.051830218233832) (9.5499999998076266;-46.288037319247813) (9.5999999998057337;-46.524238948804147) 
(9.6499999998038408;-46.760435163690524) (9.6999999998019479;-46.996626019814748) (9.7499999998000551;-47.232811572223831) 
(9.7999999997981622;-47.468991875120444) (9.8499999997962693;-47.70516698188073) (9.8999999997943764;-47.9413369450711) 
(9.9499999997924835;-48.177501816464158) (9.9999999997905906;-48.41366164705429) (10.049999999788698;-48.649816487074318) 
(10.099999999786805;-48.885966386009194) (10.149999999784912;-49.122111392612062) (10.199999999783019;-49.358251554917821) 
(10.249999999781126;-49.594386920257172) (10.299999999779233;-49.830517535271639) (10.34999999977734;-50.066643445924107) 
(10.399999999775448;-50.302764697514938) (10.449999999773555;-50.53888133469227) (10.499999999771662;-50.774993401466261) 
(10.549999999769769;-51.011100941220086) (10.599999999767876;-51.247203996722362) (10.649999999765983;-51.483302610138544) 
(10.69999999976409;-51.719396823041279) (10.749999999762197;-51.955486676423298) (10.799999999760304;-52.191572210707086) 
(10.849999999758412;-52.427653465755043) (10.899999999756519;-52.663730480880666) (10.949999999754626;-52.899803294857868) 
(10.999999999752733;-53.135871945931328) (11.04999999975084;-53.371936471825798) (11.099999999748947;-53.607996909755443) 
(11.149999999747054;-53.844053296433081) (11.199999999745161;-54.080105668079526) (11.249999999743268;-54.316154060431522) 
(11.299999999741376;-54.552198508751282) (11.349999999739483;-54.788239047833706) (11.39999999973759;-55.024275712015957) 
(11.449999999735697;-55.26030853518462) (11.499999999733804;-55.496337550783281) (11.549999999731911;-55.732362791821146) 
(11.599999999730018;-55.968384290879776) (11.649999999728125;-56.204402080120794) (11.699999999726233;-56.440416191292769) 
(11.74999999972434;-56.676426655738574) (11.799999999722447;-56.912433504401868) (11.849999999720554;-57.148436767834518) 
(11.899999999718661;-57.384436476203277) (11.949999999716768;-57.620432659294231) (11.999999999714875;-57.856425346521775) 
(12.049999999712982;-58.092414566933648) (12.099999999711089;-58.328400349216864) (12.149999999709197;-58.564382721704035) 
(12.199999999707304;-58.800361712378795) (12.249999999705411;-59.036337348881311) (12.299999999703518;-59.272309658515155) 
(12.349999999701625;-59.508278668251123) (12.399999999699732;-59.744244404733742) (12.449999999697839;-59.98020689428602) 
(12.499999999695946;-60.216166162914575) (12.549999999694053;-60.452122236315034) (12.599999999692161;-60.688075139876666) 
(12.649999999690268;-60.924024898687165) (12.699999999688375;-61.159971537538141) (12.749999999686482;-61.395915080928191) 
(12.799999999684589;-61.631855553069506) (12.849999999682696;-61.867792977890673) (12.899999999680803;-62.103727379042212) 
(12.94999999967891;-62.339658779899473) (12.999999999677017;-62.575587203568794) 