total 118400
-rwxr-xr-x 1 root root    35056 Sep 25 21:30 a52dec
-rwxr-xr-x 1 root root    14168 Sep 25 21:30 aafire
-rwxr-xr-x 1 root root    14168 Sep 25 21:30 aainfo
-rwxr-xr-x 1 root root     1395 Sep 25 21:30 aalib-config
-rwxr-xr-x 1 root root    14168 Sep 25 21:30 aasavefont
-rwxr-xr-x 1 root root    14168 Sep 25 21:30 aatest
-rwxr-xr-x 1 root root    55376 Sep 25 21:30 ab
-rwxr-xr-x 1 root root    14176 Sep 25 21:30 abw2html
-rwxr-xr-x 1 root root    14176 Sep 25 21:30 abw2raw
-rwxr-xr-x 1 root root    14176 Sep 25 21:30 abw2text
-rwxr-xr-x 1 root root    51512 Sep 25 21:30 acceleration_speed
-rwxr-xr-x 1 root root    14328 Sep 25 21:30 accessdb
-rwxr-xr-x 1 root root    36478 Sep 25 21:30 aclocal
-rwxr-xr-x 1 root root    36478 Sep 25 21:30 aclocal-1.16
-rwxr-xr-x 1 root root    14088 Sep 25 21:30 acyclic
-rwxr-xr-x 1 root root    34792 Sep 25 21:30 addftinfo
-rwxr-xr-x 1 root root     3075 Sep 25 21:30 addgnupghome
-rwxr-xr-x 1 root root    26552 Sep 25 21:30 addpart
-rwxr-xr-x 1 root root    31024 Sep 25 21:30 addr2line
-rwxr-xr-x 1 root root     5227 Sep 25 21:30 affixcompress
-rwxr-xr-x 1 root root   165785 Sep 25 21:30 afmtodit
-rwxr-xr-x 1 root root    14096 Sep 25 21:30 ag-backup
-rwxr-xr-x 1 root root    26480 Sep 25 21:30 agentxtrap
-rwxr-xr-x 1 root root    64600 Sep 25 21:30 agetty
-rwxr-xr-x 1 root root    22288 Sep 25 21:30 ag-tool
-rwxr-xr-x 1 root root       73 Sep 25 21:30 al
-rwxr-xr-x 1 root root       73 Sep 25 21:30 al2
-rwxr-xr-x 1 root root     2686 Sep 25 21:30 al-compositor
-rwxr-xr-x 1 root root     4790 Sep 25 21:30 al-info
-rwxr-xr-x 1 root root     2903 Sep 25 21:30 al-polybar-session
-rwxr-xr-x 1 root root    18376 Sep 25 21:30 alsa_delay
-rwxr-xr-x 1 root root    34920 Sep 25 21:30 alsa_in
-rwxr-xr-x 1 root root    18376 Sep 25 21:30 alsa_loopback
-rwxr-xr-x 1 root root    34912 Sep 25 21:30 alsa_out
-rwxr-xr-x 1 root root   190488 Sep 25 21:30 alsoft-config
-rwxr-xr-x 1 root root     2668 Sep 25 21:30 amuFormat.sh
-rwxr-xr-x 1 root root    18216 Sep 25 21:30 analyseplugin
-rwxr-xr-x 1 root root    14208 Sep 25 21:30 analyze
-rwxr-xr-x 1 root root    14488 Sep 25 21:30 animate
-rwxr-xr-x 1 root root    14112 Sep 25 21:30 annotate
-rwxr-xr-x 1 root root     7049 Sep 25 21:30 any2djvu
-rwxr-xr-x 1 root root    27332 Sep 25 21:30 anytovcd.sh
-rwxr-xr-x 1 root root   564864 Sep 25 21:30 aomdec
-rwxr-xr-x 1 root root   618992 Sep 25 21:30 aomenc
-rwxr-xr-x 1 root root     3395 Sep 25 21:30 apachectl
-rwxr-xr-x 1 root root     2217 Sep 25 21:30 applygnupgdefaults
-rwxr-xr-x 1 root root    18216 Sep 25 21:30 applyplugin
-rwxr-xr-x 1 root root    79656 Sep 25 21:30 appstream-builder
-rwxr-xr-x 1 root root    22312 Sep 25 21:30 appstream-compose
-rwxr-xr-x 1 root root    87848 Sep 25 21:30 appstream-util
-rwxr-xr-x 1 root root     6802 Sep 25 21:30 apr-1-config
-rwxr-xr-x 1 root root    52032 Sep 25 21:30 apropos
-rwxr-xr-x 1 root root     6207 Sep 25 21:30 apu-1-config
-rwxr-xr-x 1 root root    23511 Sep 25 21:30 apxs
-rwxr-xr-x 1 root root    63480 Sep 25 21:30 ar
-rwxr-xr-x 1 root root    15448 Sep 25 21:30 arbfplight
-rwxr-xr-x 1 root root    15464 Sep 25 21:30 arbfslight
-rwxr-xr-x 1 root root    15384 Sep 25 21:30 arbocclude
-rwxr-xr-x 1 root root    15392 Sep 25 21:30 arbocclude2
-rwxr-xr-x 1 root root     8649 Sep 25 21:30 arch-chroot
-rwxr-xr-x 1 root root    93390 Sep 25 21:30 archlabs-installer
-rwxr-xr-x 1 root root     4964 Sep 25 21:30 archlinux-java
-rwxr-xr-x 1 root root      317 Sep 25 21:30 arch-meson
-rwxr-xr-x 1 root root    46856 Sep 25 21:30 argon2
-rwxr-xr-x 1 root root    71552 Sep 25 21:30 arpd
-rwxr-xr-x 1 root root    26512 Sep 25 21:30 arping
-rwxr-xr-x 1 root root   220208 Sep 25 21:30 arptables-nft
-rwxr-xr-x 1 root root   220208 Sep 25 21:30 arptables-nft-restore
-rwxr-xr-x 1 root root   220208 Sep 25 21:30 arptables-nft-save
-rwxr-xr-x 1 root root    23584 Sep 25 21:30 array
-rwxr-xr-x 1 root root   810760 Sep 25 21:30 as
-rwxr-xr-x 1 root root     2178 Sep 25 21:30 asar
-rwxr-xr-x 1 root root    34736 Sep 25 21:30 aserver
-rwxr-xr-x 1 root root  6297784 Sep 25 21:30 asm2wasm
-rwxr-xr-x 1 root root    14160 Sep 25 21:30 asn1Coding
-rwxr-xr-x 1 root root    14160 Sep 25 21:30 asn1Decoding
-rwxr-xr-x 1 root root    14160 Sep 25 21:30 asn1Parser
-rwxr-xr-x 1 root root   162024 Sep 25 21:30 aspell
-rwxr-xr-x 1 root root     2044 Sep 25 21:30 aspell-import
-rwxr-xr-x 1 root root  1374624 Sep 25 21:30 assistant
-rwxr-xr-x 1 root root  1374624 Sep 25 21:30 assistant-qt5
-rwxr-xr-x 1 root root    10016 Sep 25 21:30 attr
-rwxr-x--- 1 root root    42840 Sep 25 21:30 audispd
-rwxr-xr-x 1 root root    30544 Sep 25 21:30 audispd-zos-remote
-rwxr-xr-x 1 root root    46952 Sep 25 21:30 audisp-remote
-rwxr-xr-x 1 root root    42904 Sep 25 21:30 auditctl
-rwxr-xr-x 1 root root   124952 Sep 25 21:30 auditd
-rwxr-x--- 1 root root     3791 Sep 25 21:30 augenrules
-rwxr-xr-x 1 root root    22824 Sep 25 21:30 augmatch
-rwxr-xr-x 1 root root    14112 Sep 25 21:30 augparse
-rwxr-xr-x 1 root root    27096 Sep 25 21:30 augtool
-rwxr-xr-x 1 root root    18184 Sep 25 21:30 aulast
-rwxr-xr-x 1 root root    14088 Sep 25 21:30 aulastlog
-rwxr-xr-x 1 root root   116624 Sep 25 21:30 aureport
-rwxr-xr-x 1 root root   120736 Sep 25 21:30 ausearch
-rwxr-xr-x 1 root root    14088 Sep 25 21:30 ausyscall
-rwxr-xr-x 1 root root    14768 Sep 25 21:30 autoconf
-rwxr-xr-x 1 root root     8534 Sep 25 21:30 autoheader
-rwxr-xr-x 1 root root    32181 Sep 25 21:30 autom4te
-rwxr-xr-x 1 root root   257949 Sep 25 21:30 automake
-rwxr-xr-x 1 root root   257949 Sep 25 21:30 automake-1.16
-rwxr-xr-x 1 root root    26995 Sep 25 21:30 autopoint
-rwxr-xr-x 1 root root    21066 Sep 25 21:30 autoreconf
-rwxr-xr-x 1 root root    17124 Sep 25 21:30 autoscan
-rwxr-xr-x 1 root root    33872 Sep 25 21:30 autoupdate
-rwxr-xr-x 1 root root    18184 Sep 25 21:30 autrace
-rwxr-xr-x 1 root root    34640 Sep 25 21:30 auvirt
-rwxr-xr-x 1 root root    38776 Sep 25 21:30 avahi-autoipd
-rwxr-xr-x 1 root root     7179 Sep 25 21:30 avahi-bookmarks
-rwxr-xr-x 1 root root    30584 Sep 25 21:30 avahi-browse
-rwxr-xr-x 1 root root    30584 Sep 25 21:30 avahi-browse-domains
-rwxr-xr-x 1 root root   137352 Sep 25 21:30 avahi-daemon
-rwxr-xr-x 1 root root    13152 Sep 25 21:30 avahi-discover
-rwxr-xr-x 1 root root    18208 Sep 25 21:30 avahi-discover-standalone
-rwxr-xr-x 1 root root    22376 Sep 25 21:30 avahi-dnsconfd
-rwxr-xr-x 1 root root    22384 Sep 25 21:30 avahi-publish
-rwxr-xr-x 1 root root    22384 Sep 25 21:30 avahi-publish-address
-rwxr-xr-x 1 root root    22384 Sep 25 21:30 avahi-publish-service
-rwxr-xr-x 1 root root    14192 Sep 25 21:30 avahi-resolve
-rwxr-xr-x 1 root root    14192 Sep 25 21:30 avahi-resolve-address
-rwxr-xr-x 1 root root    14192 Sep 25 21:30 avahi-resolve-host-name
-rwxr-xr-x 1 root root    14192 Sep 25 21:30 avahi-set-host-name
-rwxr-xr-x 1 root root   698440 Sep 25 21:30 awk
-rwxr-xr-x 1 root root    59400 Sep 25 21:30 b2sum
-rwxr-xr-x 1 root root    61304 Sep 25 21:30 b43-fwcutter
-rwxr-xr-x 1 root root    34584 Sep 25 21:30 badblocks
-rwxr-xr-x 1 root root   194592 Sep 25 21:30 baobab
-rwxr-xr-x 1 root root     9362 Sep 25 21:30 baph
-rwxr-xr-x 1 root root    42984 Sep 25 21:30 base32
-rwxr-xr-x 1 root root    42984 Sep 25 21:30 base64
-rwxr-xr-x 1 root root    38888 Sep 25 21:30 basename
-rwxr-xr-x 1 root root    51176 Sep 25 21:30 basenc
-rwxr-xr-x 1 root root   903440 Sep 25 21:30 bash
-r-xr-xr-x 1 root root     6930 Sep 25 21:30 bashbug
-rwxr-xr-x 1 root root    92656 Sep 25 21:30 bc
-rwxr-xr-x 1 root root    18232 Sep 25 21:30 bcomps
-rwxr-xr-x 1 root root     4006 Sep 25 21:30 bdftogd
-rwxr-xr-x 1 root root    42888 Sep 25 21:30 bdftopcf
-rwxr-xr-x 1 root root    14088 Sep 25 21:30 bdftruncate
-rwxr-xr-x 1 root root    14112 Sep 25 21:30 bd_info
-rwxr-xr-x 1 root root    23896 Sep 25 21:30 bezier
-rwxr-xr-x 1 root root   426432 Sep 25 21:30 bison
-rwxr-xr-x 1 root root    23592 Sep 25 21:30 bitmap
-rwxr-xr-x 1 root root    18376 Sep 25 21:30 bjoentegaard
-rwxr-xr-x 1 root root    23632 Sep 25 21:30 blinking-teapot
-r-xr-xr-x 1 root root    14836 Sep 25 21:30 blkdeactivate
-rwxr-xr-x 1 root root    30792 Sep 25 21:30 blkdiscard
-rwxr-xr-x 1 root root   116832 Sep 25 21:30 blkid
-rwxr-xr-x 1 root root    51064 Sep 25 21:30 blkmapd
-rwxr-xr-x 1 root root    71752 Sep 25 21:30 blkzone
-rwxr-xr-x 1 root root    63552 Sep 25 21:30 blockdev
-rwxr-xr-x 1 root root    10104 Sep 25 21:30 block-rate-estim
-rwxr-xr-x 1 root root    30728 Sep 25 21:30 bluetooth-sendto
-rwxr-xr-x 1 root root   112952 Sep 25 21:30 boltctl
-rwxr-xr-x 1 root root    23285 Sep 25 21:30 bond2team
-rwxr-xr-x 1 root root    59336 Sep 25 21:30 bootctl
-rwxr-xr-x 1 root root    11336 Sep 25 21:30 bounce
-rwxr-xr-x 1 root root    15592 Sep 25 21:30 boxdumper
-rwxr-xr-x 1 root root    24136 Sep 25 21:30 brick
-rwxr-xr-x 1 root root   100264 Sep 25 21:30 bridge
-rwxr-xr-x 1 root root   822728 Sep 25 21:30 brltty
-rwxr-xr-x 1 root root   153904 Sep 25 21:30 brltty-atb
-rwxr-xr-x 1 root root   153824 Sep 25 21:30 brltty-cldr
-rw-r--r-- 1 root root     4531 Sep 25 21:30 brltty-config
-rwxr-xr-x 1 root root   240080 Sep 25 21:30 brltty-ctb
-rwxr-xr-x 1 root root   436608 Sep 25 21:30 brltty-ktb
-rwxr-xr-x 1 root root   178408 Sep 25 21:30 brltty-lscmds
-rwxr-xr-x 1 root root   149792 Sep 25 21:30 brltty-lsinc
-rwxr-xr-x 1 root root   219432 Sep 25 21:30 brltty-morse
-rwxr-xr-x 1 root root   186704 Sep 25 21:30 brltty-trtxt
-rwxr-xr-x 1 root root   215568 Sep 25 21:30 brltty-ttb
-rwxr-xr-x 1 root root   223592 Sep 25 21:30 brltty-tune
-rwxr-xr-x 1 root root   112472 Sep 25 21:30 broadwayd
-rwxr-xr-x 1 root root   755744 Sep 25 21:30 brotli
-rwxr-xr-x 1 root root    10024 Sep 25 21:30 bs2bconvert
-rwxr-xr-x 1 root root    14120 Sep 25 21:30 bs2bstream
-rwxr-xr-x 1 root root     4908 Sep 25 21:30 bscalc
-rwxr-xr-x 1 root root    14184 Sep 25 21:30 bsdcat
-rwxr-xr-x 1 root root    42856 Sep 25 21:30 bsdcpio
-rwxr-xr-x 1 root root    67432 Sep 25 21:30 bsdtar
-rwxr-xr-x 1 root root    18280 Sep 25 21:30 bshell
-rwxr-xr-x 1 root root    18280 Sep 25 21:30 bssh
-rwxr-xr-x 1 root root   209776 Sep 25 21:30 btcflash
-rwxr-xr-x 1 root root   912856 Sep 25 21:30 btrfs
-rwxr-xr-x 1 root root   912856 Sep 25 21:30 btrfsck
-rwxr-xr-x 1 root root   514968 Sep 25 21:30 btrfs-convert
-rwxr-xr-x 1 root root   482264 Sep 25 21:30 btrfs-find-root
-rwxr-xr-x 1 root root   510872 Sep 25 21:30 btrfs-image
-rwxr-xr-x 1 root root   478104 Sep 25 21:30 btrfs-map-logical
-rwxr-xr-x 1 root root   478104 Sep 25 21:30 btrfs-select-super
-rwxr-xr-x 1 root root   486296 Sep 25 21:30 btrfstune
-rwxr-xr-x 1 root root   419752 Sep 25 21:30 bugpoint
-rwxr-xr-x 1 root root    32880 Sep 25 21:30 bump
-rwxr-xr-x 1 root root    38744 Sep 25 21:30 bunzip2
-rwxr-xr-x 1 root root    83912 Sep 25 21:30 busctl
-rwxr-xr-x 1 root root    18280 Sep 25 21:30 bvnc
-rwxr-xr-x 1 root root    55160 Sep 25 21:30 bwrap
-rwxr-xr-x 1 root root    38744 Sep 25 21:30 bzcat
-rwxr-xr-x 1 root root     2140 Sep 25 21:30 bzdiff
-rwxr-xr-x 1 root root     2054 Sep 25 21:30 bzgrep
-rwxr-xr-x 1 root root    38744 Sep 25 21:30 bzip2
-rwxr-xr-x 1 root root    14088 Sep 25 21:30 bzip2recover
-rwxr-xr-x 1 root root     1259 Sep 25 21:30 bzmore
-rwxr-xr-x 1 root root     4523 Sep 25 21:30 bzr
-rwxr-xr-x 1 root root    22488 Sep 25 21:30 bzz
-rwxr-xr-x 1 root root  1137032 Sep 25 21:30 c++
-rwxr-xr-x 1 root root    51192 Sep 25 21:30 c44
-rwxr-xr-x 1 root root      224 Sep 25 21:30 c89
-rwxr-xr-x 1 root root      215 Sep 25 21:30 c99
-rwxr-xr-x 1 root root    72024 Sep 25 21:30 cabextract
-rwxr-xr-x 1 root root    14240 Sep 25 21:30 cacaclock
-rwxr-xr-x 1 root root     1645 Sep 25 21:30 caca-config
-rwxr-xr-x 1 root root   284488 Sep 25 21:30 cacademo
-rwxr-xr-x 1 root root    18192 Sep 25 21:30 cacafire
-rwxr-xr-x 1 root root    14096 Sep 25 21:30 cacaplay
-rwxr-xr-x 1 root root    14096 Sep 25 21:30 cacaserver
-rwxr-xr-x 1 root root    22376 Sep 25 21:30 cacaview
-rwxr-xr-x 1 root root  1437928 Sep 25 21:30 cache_check
-rwxr-xr-x 1 root root  1437928 Sep 25 21:30 cache_dump
-rwxr-xr-x 1 root root  1437928 Sep 25 21:30 cache_metadata_size
-rwxr-xr-x 1 root root  1437928 Sep 25 21:30 cache_repair
-rwxr-xr-x 1 root root  1437928 Sep 25 21:30 cache_restore
-rwxr-xr-x 1 root root  1437928 Sep 25 21:30 cache_writeback
-rwxr-xr-x 1 root root    83792 Sep 25 21:30 cairo-sphinx
-rwxr-xr-x 1 root root     3000 Sep 25 21:30 cairo-trace
-rwxr-xr-x 1 root root    63856 Sep 25 21:30 cal
-rwxr-xr-x 1 root root    18184 Sep 25 21:30 canberra-boot
-rwxr-xr-x 1 root root    18264 Sep 25 21:30 canberra-gtk-play
-rwxr-xr-x 1 root root    14088 Sep 25 21:30 cancel
-rwxr-xr-x 1 root root    26384 Sep 25 21:30 capsh
-rwxr-xr-x 1 root root    11288 Sep 25 21:30 captest
-rwxr-xr-x 1 root root    87968 Sep 25 21:30 captoinfo
-rwxr-xr-x 1 root root       77 Sep 25 21:30 caspol
-rwxr-xr-x 1 root root    38952 Sep 25 21:30 cat
-rwxr-xr-x 1 root root     3272 Sep 25 21:30 catchsegv
-rwxr-xr-x 1 root root    80704 Sep 25 21:30 catimg
-rwxr-xr-x 1 root root    39216 Sep 25 21:30 catman
-rwxr-xr-x 1 root root  1132936 Sep 25 21:30 cc
-rwxr-xr-x 1 root root    55120 Sep 25 21:30 ccache-swig
-rwxr-xr-x 1 root root    55120 Sep 25 21:30 ccache-swig-3
-rwxr-xr-x 1 root root       78 Sep 25 21:30 cccheck
-rwxr-xr-x 1 root root  5304272 Sep 25 21:30 ccmake
-rwxr-xr-x 1 root root    26424 Sep 25 21:30 ccomps
-rwxr-xr-x 1 root root       80 Sep 25 21:30 ccrewrite
-rwxr-xr-x 1 root root    18184 Sep 25 21:30 cd-convert
-rwxr-xr-x 1 root root    26384 Sep 25 21:30 cd-create-profile
-rwxr-xr-x 1 root root     2793 Sep 25 21:30 cdda2mp3
-rwxr-xr-x 1 root root     2808 Sep 25 21:30 cdda2ogg
-rwx--x--x 1 root root   383024 Sep 25 21:30 cdda2wav
-rwxr-xr-x 1 root root    38688 Sep 25 21:30 cdda-player
-rwxr-xr-x 1 root root    27672 Sep 25 21:30 cddb_query
-rwxr-xr-x 1 root root    26456 Sep 25 21:30 cd-drive
-rwxr-xr-x 1 root root    26384 Sep 25 21:30 cd-fix-profile
-rwxr-xr-x 1 root root    14096 Sep 25 21:30 cd-iccdump
-rwxr-xr-x 1 root root    46936 Sep 25 21:30 cd-info
-rwxr-xr-x 1 root root    22288 Sep 25 21:30 cd-it8
-rwxr-xr-x 1 root root    63360 Sep 25 21:30 cd-paranoia
-rwxr-xr-x 1 root root    60400 Sep 25 21:30 cdparanoia
-rwxr-xr-x 1 root root    14208 Sep 25 21:30 cdr2raw
-rwxr-xr-x 1 root root    14208 Sep 25 21:30 cdr2text
-rwxr-xr-x 1 root root    18304 Sep 25 21:30 cdr2xhtml
-rwxr-xr-x 1 root root    34648 Sep 25 21:30 cd-read
-rwx--x--x 1 root root   570352 Sep 25 21:30 cdrecord
-rwxr-xr-x 1 root root   182816 Sep 25 21:30 cec-compliance
-rwxr-xr-x 1 root root   303968 Sep 25 21:30 cec-ctl
-rwxr-xr-x 1 root root   116952 Sep 25 21:30 cec-follower
-rwxr-xr-x 1 root root    18488 Sep 25 21:30 celtdec
-rwxr-xr-x 1 root root    18512 Sep 25 21:30 celtdec051
-rwxr-xr-x 1 root root    23032 Sep 25 21:30 celtenc
-rwxr-xr-x 1 root root    22896 Sep 25 21:30 celtenc051
-rwxr-xr-x 1 root root       79 Sep 25 21:30 cert2spc
-rwxr-xr-x 1 root root       78 Sep 25 21:30 certmgr
-rwxr-xr-x 1 root root       80 Sep 25 21:30 cert-sync
-rwxr-xr-x 1 root root    38272 Sep 25 21:30 cert-to-efi-hash-list
-rwxr-xr-x 1 root root    32496 Sep 25 21:30 cert-to-efi-sig-list
-rwxr-xr-x 1 root root   326680 Sep 25 21:30 certtool
-rwxr-xr-x 1 root root   186704 Sep 25 21:30 certutil
-rwxr-xr-x 1 root root    96696 Sep 25 21:30 cfdisk
-rwxr-xr-x 1 root root    30576 Sep 25 21:30 c++filt
-rwxr-xr-x 1 root root   198616 Sep 25 21:30 cgdisk
-rwxr-xr-x 1 root root    14112 Sep 25 21:30 chacl
-rwxr-xr-x 1 root root    79696 Sep 25 21:30 chafa
-rwxr-xr-x 1 root root    71728 Sep 25 21:30 chage
-rwxr-xr-x 1 root root      387 Sep 25 21:30 chardetect
-rwxr-xr-x 1 root root      388 Sep 25 21:30 chardetect-py2
-rwxr-xr-x 1 root root    30592 Sep 25 21:30 chat
-rwxr-xr-x 1 root root    14096 Sep 25 21:30 chattr
-rwxr-xr-x 1 root root    63464 Sep 25 21:30 chcon
-rwxr-xr-x 1 root root    14160 Sep 25 21:30 chcp
-rwxr-xr-x 1 root root    43072 Sep 25 21:30 chcpu
-rwxr-xr-x 1 root root    25148 Sep 25 21:30 checkbandwidth
-rwxr-xr-x 1 root root    14088 Sep 25 21:30 checkgid
-rwxr-xr-x 1 root root     3096 Sep 25 21:30 checkupdates
-rwxr-xr-x 1 root root   260056 Sep 25 21:30 cheese
-rwxr-xr-x 1 root root    29181 Sep 25 21:30 chem
-rwxr-xr-x 1 root root    18216 Sep 25 21:30 chezdav
-rwxr-xr-x 1 root root    30784 Sep 25 21:30 chfn
-rwxr-xr-x 1 root root    59104 Sep 25 21:30 chgpasswd
-rwxr-xr-x 1 root root    67560 Sep 25 21:30 chgrp
-rwxr-xr-x 1 root root       79 Sep 25 21:30 chktrust
-rwxr-xr-x 1 root root    59456 Sep 25 21:30 chmem
-rwxr-xr-x 1 root root    63496 Sep 25 21:30 chmod
-rwxr-xr-x 1 root root    30672 Sep 25 21:30 chmorph
-rwxr-xr-x 1 root root    51264 Sep 25 21:30 choom
-rwxr-xr-x 1 root root    67560 Sep 25 21:30 chown
-rwxr-xr-x 1 root root    55040 Sep 25 21:30 chpasswd
-rwxr-xr-x 1 root root  9394192 Sep 25 21:30 chromedriver
-rwxr-xr-x 1 root root    14088 Sep 25 21:30 chromium
-rwxr-xr-x 1 root root    42984 Sep 25 21:30 chroot
-rwxr-xr-x 1 root root    34880 Sep 25 21:30 chrt
-rwxr-xr-x 1 root root    26688 Sep 25 21:30 chsh
-rwxr-xr-x 1 root root    14160 Sep 25 21:30 chvt
-rwxr-xr-x 1 root root    14464 Sep 25 21:30 cifscreds
-rwxr-xr-x 1 root root    90112 Sep 25 21:30 cifsdd
-rwxr-xr-x 1 root root    14184 Sep 25 21:30 cifs.idmap
-rwxr-xr-x 1 root root    30592 Sep 25 21:30 cifs.upcall
-rwxr-xr-x 1 root root   178640 Sep 25 21:30 c-index-test
-rwxr-xr-x 1 root root    14088 Sep 25 21:30 circo
-rwxr-xr-x 1 root root   124880 Sep 25 21:30 cjb2
-rwxr-xr-x 1 root root    51024 Sep 25 21:30 cjpeg
-rwxr-xr-x 1 root root    38888 Sep 25 21:30 cksum
-rwxr-xr-x 1 root root   137072 Sep 25 21:30 clang
-rwxr-xr-x 1 root root   137072 Sep 25 21:30 clang++
-rwxr-xr-x 1 root root   137072 Sep 25 21:30 clang-8
-rwxr-xr-x 1 root root    46944 Sep 25 21:30 clang-apply-replacements
-rwxr-xr-x 1 root root   264008 Sep 25 21:30 clang-change-namespace
-rwxr-xr-x 1 root root    38728 Sep 25 21:30 clang-check
-rwxr-xr-x 1 root root   137072 Sep 25 21:30 clang-cl
-rwxr-xr-x 1 root root   137072 Sep 25 21:30 clang-cpp
-rwxr-xr-x 1 root root    91984 Sep 25 21:30 clangd
-rwxr-xr-x 1 root root   264008 Sep 25 21:30 clang-doc
-rwxr-xr-x 1 root root    30536 Sep 25 21:30 clang-extdef-mapping
-rwxr-xr-x 1 root root    67400 Sep 25 21:30 clang-format
-rwxr-xr-x 1 root root    71496 Sep 25 21:30 clang-import-test
-rwxr-xr-x 1 root root    91976 Sep 25 21:30 clang-include-fixer
-rwxr-xr-x 1 root root    59216 Sep 25 21:30 clang-offload-bundler
-rwxr-xr-x 1 root root   251720 Sep 25 21:30 clang-query
-rwxr-xr-x 1 root root   120648 Sep 25 21:30 clang-refactor
-rwxr-xr-x 1 root root    67400 Sep 25 21:30 clang-rename
-rwxr-xr-x 1 root root    38728 Sep 25 21:30 clang-reorder-fields
-rwxr-xr-x 1 root root   272200 Sep 25 21:30 clang-tidy
-rwxr-xr-x 1 root root     4222 Sep 25 21:30 clazy
-rwxr-xr-x 1 root root   300928 Sep 25 21:30 clazy-standalone
-rwxr-xr-x 1 root root    14224 Sep 25 21:30 cleanupdelta
-rwxr-xr-x 1 root root    14128 Sep 25 21:30 clear
-rwxr-xr-x 1 root root    11288 Sep 25 21:30 clear-color
-rwxr-xr-x 1 root root    11296 Sep 25 21:30 clear-fbo
-rwxr-xr-x 1 root root    15392 Sep 25 21:30 clear-fbo-scissor
-rwxr-xr-x 1 root root    11296 Sep 25 21:30 clear-fbo-tex
-rwxr-xr-x 1 root root    11288 Sep 25 21:30 clear-random
-rwxr-xr-x 1 root root    11288 Sep 25 21:30 clear-repeat
-rwxr-xr-x 1 root root    11296 Sep 25 21:30 clear-scissor
-rwxr-xr-x 1 root root    11304 Sep 25 21:30 clearspd
-rwxr-xr-x 1 root root    11296 Sep 25 21:30 clear-undefined
-rwxr-xr-x 1 root root   168696 Sep 25 21:30 clit
-rwxr-xr-x 1 root root    18320 Sep 25 21:30 clockdiff
-rwxr-xr-x 1 root root     5851 Sep 25 21:30 clonezilla
-rwxr-xr-x 1 root root   564664 Sep 25 21:30 cluster
-rwxr-xr-x 1 root root  5722416 Sep 25 21:30 cmake
-rwxr-xr-x 1 root root  5660384 Sep 25 21:30 cmake-gui
-rwxr-xr-x 1 root root   169968 Sep 25 21:30 cmis-client
-rwxr-xr-x 1 root root    51080 Sep 25 21:30 cmp
-rwxr-xr-x 1 root root   108392 Sep 25 21:30 cmsutil
-rwxr-xr-x 1 root root    14208 Sep 25 21:30 cmx2raw
-rwxr-xr-x 1 root root    14208 Sep 25 21:30 cmx2text
-rwxr-xr-x 1 root root    18304 Sep 25 21:30 cmx2xhtml
-rwxr-xr-x 1 root root    11475 Sep 25 21:30 cnvt-ocs-dev
-rwxr-xr-x 1 root root      103 Sep 25 21:30 code
-rwxr-xr-x 1 root root      103 Sep 25 21:30 code-oss
-rwxr-xr-x 1 root root    30784 Sep 25 21:30 col
-rwxr-xr-x 1 root root    14400 Sep 25 21:30 colcrt
-rwxr-xr-x 1 root root    55056 Sep 25 21:30 colormgr
-rwxr-xr-x 1 root root    30784 Sep 25 21:30 colrm
-rwxr-xr-x 1 root root    51272 Sep 25 21:30 column
-rwxr-xr-x 1 root root    43016 Sep 25 21:30 comm
-rwxr-xr-x 1 root root    14488 Sep 25 21:30 compare
-rwxr-xr-x 1 root root     1341 Sep 25 21:30 compile_et
-rwxr-xr-x 1 root root    14488 Sep 25 21:30 composite
-rwxr-xr-x 1 root root      413 Sep 25 21:30 conf.py
-rwxr-xr-x 1 root root    14488 Sep 25 21:30 conjure
-rwxr-xr-x 1 root root     3032 Sep 25 21:30 conplay
-rwxr-xr-x 1 root root    14488 Sep 25 21:30 convert
-rwxr-xr-x 1 root root      188 Sep 25 21:30 convert-mans
-rwxr-xr-x 1 root root    23576 Sep 25 21:30 convolutions
-rwxr-xr-x 1 root root  1685528 Sep 25 21:30 cool-retro-term
-rwxr-xr-x 1 root root    22448 Sep 25 21:30 copydatabase
-rwxr-xr-x 1 root root    19488 Sep 25 21:30 copypix
-rwxr-xr-x 1 root root    19488 Sep 25 21:30 copytex
-rwxr-xr-x 1 root root    42840 Sep 25 21:30 coredumpctl
-rwxr-xr-x 1 root root    10008 Sep 25 21:30 corrupt_mpeg2
-rwxr-xr-x 1 root root    14080 Sep 25 21:30 count
-rwxr-xr-x 1 root root   124936 Sep 25 21:30 cp
-rwxr-xr-x 1 root root  5869488 Sep 25 21:30 cpack
-rwxr-xr-x 1 root root   133072 Sep 25 21:30 cpaldjvu
-rwxr-xr-x 1 root root   157048 Sep 25 21:30 cpio
-rwxr-xr-x 1 root root  1132936 Sep 25 21:30 cpp
-rwxr-xr-x 1 root root    31176 Sep 25 21:30 cpufetch
-rwxr-xr-x 1 root root    14120 Sep 25 21:30 cracklib-check
-rwxr-xr-x 1 root root      231 Sep 25 21:30 cracklib-format
-rwxr-xr-x 1 root root    14120 Sep 25 21:30 cracklib-packer
-rwxr-xr-x 1 root root    14120 Sep 25 21:30 cracklib-unpacker
-rwxr-xr-x 1 root root      990 Sep 25 21:30 create-cracklib-dict
-rwxr-xr-x 1 root root    20368 Sep 25 21:30 create-debian-live
-rwxr-xr-x 1 root root    53305 Sep 25 21:30 create-drbl-live
-rwxr-xr-x 1 root root    11305 Sep 25 21:30 create-drbl-live-by-pkg
-rwxr-xr-x 1 root root     9992 Sep 25 21:30 createfp
-rwxr-xr-x 1 root root    53565 Sep 25 21:30 create-gparted-live
-rwxr-xr-x 1 root root     9519 Sep 25 21:30 create-ocs-tmp-img
-rwxr-xr-x 1 root root    23400 Sep 25 21:30 create-ubuntu-live
-rwxr-xr-x 1 root root    11288 Sep 25 21:30 createwin
-rwxr-xr-x 1 root root     6188 Sep 25 21:30 c_rehash
-rwxr-xr-x 1 root root       80 Sep 25 21:30 crlupdate
-rwxr-xr-x 1 root root   120688 Sep 25 21:30 crlutil
-rwxr-xr-x 1 root root     1329 Sep 25 21:30 croco-0.6-config
-rwxr-xr-x 1 root root   134112 Sep 25 21:30 cryptsetup
-rwxr-xr-x 1 root root    99144 Sep 25 21:30 cryptsetup-reencrypt
-rwxr-xr-x 1 root root      103 Sep 25 21:30 csc
-rwxr-xr-x 1 root root   161744 Sep 25 21:30 csepdjvu
-rwxr-xr-x 1 root root       77 Sep 25 21:30 csharp
-rwxr-xr-x 1 root root      103 Sep 25 21:30 csi
-rwxr-xr-x 1 root root   120840 Sep 25 21:30 csplit
-rwxr-xr-x 1 root root    26408 Sep 25 21:30 csslint-0.6
-rwxr-xr-x 1 root root   968552 Sep 25 21:30 ctags
-rwxr-xr-x 1 root root  6740176 Sep 25 21:30 ctest
-rwxr-xr-x 1 root root    38984 Sep 25 21:30 ctrlaltdel
-rwxr-xr-x 1 root root    22648 Sep 25 21:30 ctstat
-rwxr-xr-x 1 root root    23664 Sep 25 21:30 cubemap
-rwxr-xr-x 1 root root    19536 Sep 25 21:30 cuberender
-rwxr-xr-x 1 root root    14088 Sep 25 21:30 cupsaccept
-rwxr-xr-x 1 root root   223368 Sep 25 21:30 cups-browsed
-rwxr-xr-x 1 root root     2450 Sep 25 21:30 cups-config
-rwxr-xr-x 1 root root    14160 Sep 25 21:30 cupsctl
-rwx------ 1 root root   457040 Sep 25 21:30 cupsd
-rwxr-xr-x 1 root root    14088 Sep 25 21:30 cupsdisable
-rwxr-xr-x 1 root root    14088 Sep 25 21:30 cupsenable
-rwxr-xr-x 1 root root    43064 Sep 25 21:30 cupsfilter
-rwxr-xr-x 1 root root    14088 Sep 25 21:30 cupsreject
-rwxr-xr-x 1 root root    63312 Sep 25 21:30 cupstestppd
-rwxr-xr-x 1 root root   186192 Sep 25 21:30 curl
-rwxr-xr-x 1 root root     6087 Sep 25 21:30 curl-config
-rwxr-xr-x 1 root root    14088 Sep 25 21:30 curve_keygen
-rwxr-xr-x 1 root root    43016 Sep 25 21:30 cut
-rwxr-xr-x 1 root root       45 Sep 25 21:30 cvlc
-rwxr-xr-x 1 root root     1562 Sep 25 21:30 cv-ocsimg-v1-to-v2
-rwxr-xr-x 1 root root   686664 Sep 25 21:30 cvs
-rwxr-xr-x 1 root root    14032 Sep 25 21:30 cvsbug
-rwxr-xr-x 1 root root    18552 Sep 25 21:30 cvt
-rwxr-xr-x 1 root root   260168 Sep 25 21:30 cvtsudoers
-rwxr-xr-x 1 root root    59216 Sep 25 21:30 cwebp
-rwxr-xr-x 1 root root    14392 Sep 25 21:30 cx18-ctl
-rwxr-xr-x 1 root root    30816 Sep 25 21:30 cxpm
-rwxr-xr-x 1 root root   108552 Sep 25 21:30 date
-rwxr-xr-x 1 root root    30544 Sep 25 21:30 dav1d
-rwxr-xr-x 1 root root    26448 Sep 25 21:30 dav1dplay
-rwxr-xr-x 1 root root    43008 Sep 25 21:30 daxctl
-rwxr-xr-x 1 root root    14088 Sep 25 21:30 dazzle-list-counters
-r-xr-xr-x 1 root root    10016 Sep 25 21:30 db_archive
-r-xr-xr-x 1 root root    10016 Sep 25 21:30 db_checkpoint
-r-xr-xr-x 1 root root    14112 Sep 25 21:30 db_deadlock
-r-xr-xr-x 1 root root    14112 Sep 25 21:30 db_dump
-r-xr-xr-x 1 root root    14112 Sep 25 21:30 db_hotbackup
-r-xr-xr-x 1 root root    26400 Sep 25 21:30 db_load
-r-xr-xr-x 1 root root    14112 Sep 25 21:30 db_log_verify
-rwxr-xr-x 1 root root     8925 Sep 25 21:30 dbmmanage
-r-xr-xr-x 1 root root    30496 Sep 25 21:30 db_printlog
-r-xr-xr-x 1 root root    10016 Sep 25 21:30 db_recover
-r-xr-xr-x 1 root root    14112 Sep 25 21:30 db_replicate
-r-xr-xr-x 1 root root    14112 Sep 25 21:30 db_stat
-r-xr-xr-x 1 root root    18216 Sep 25 21:30 db_tuner
-r-xr-xr-x 1 root root    10016 Sep 25 21:30 db_upgrade
-rwxr-xr-x 1 root root    92048 Sep 25 21:30 dbus-binding-tool
-rwxr-xr-x 1 root root    14088 Sep 25 21:30 dbus-cleanup-sockets
-rwxr-xr-x 1 root root   219376 Sep 25 21:30 dbus-daemon
-rwxr-xr-x 1 root root    22280 Sep 25 21:30 dbus-launch
-rwxr-xr-x 1 root root    26376 Sep 25 21:30 dbus-monitor
-rwxr-xr-x 1 root root    14088 Sep 25 21:30 dbus-run-session
-rwxr-xr-x 1 root root    30472 Sep 25 21:30 dbus-send
-rwxr-xr-x 1 root root    26456 Sep 25 21:30 dbus-test-tool
-rwxr-xr-x 1 root root    14088 Sep 25 21:30 dbus-update-activation-environment
-rwxr-xr-x 1 root root    14088 Sep 25 21:30 dbus-uuidgen
-r-xr-xr-x 1 root root    10016 Sep 25 21:30 db_verify
-rwxr-xr-x 1 root root    26600 Sep 25 21:30 dbwrap_tool
-rwxr-xr-x 1 root root    51080 Sep 25 21:30 dc
-rwxr-xr-x 1 root root    14112 Sep 25 21:30 dc1394_reset_bus
-rwxr-xr-x 1 root root    31112 Sep 25 21:30 dcadec
-rwxr-xr-x 1 root root    51024 Sep 25 21:30 dconf
-rwxr-xr-x 1 root root    22368 Sep 25 21:30 dcraw_emu
-rwxr-xr-x 1 root root    14088 Sep 25 21:30 dcraw_half
-rwxr-xr-x 1 root root    51105 Sep 25 21:30 dcs
-rwxr-xr-x 1 root root    75792 Sep 25 21:30 dd
-rwxr-xr-x 1 root root    96720 Sep 25 21:30 ddjvu
-rwxr-xr-x 1 root root    14160 Sep 25 21:30 deallocvt
-rwxr-xr-x 1 root root   226568 Sep 25 21:30 debugfs
-rwxr-xr-x 1 root root    75544 Sep 25 21:30 debugfs.reiserfs
-rwxr-xr-x 1 root root    75544 Sep 25 21:30 debugreiserfs
-rwxr-xr-x 1 root root    23000 Sep 25 21:30 dec265
-rwxr-xr-x 1 root root    30848 Sep 25 21:30 decode_tm6000
-rwxr-xr-x 1 root root   170224 Sep 25 21:30 defrag.f2fs
-rwxr-xr-x 1 root root    18672 Sep 25 21:30 delaunay
-rwxr-xr-x 1 root root    26552 Sep 25 21:30 delpart
-rwxr-xr-x 1 root root   161856 Sep 25 21:30 depmod
-rwxr-xr-x 1 root root    26984 Sep 25 21:30 derb
-rwxr-xr-x 1 root root    23584 Sep 25 21:30 deriv
-rwxr-xr-x 1 root root   526248 Sep 25 21:30 designer
-rwxr-xr-x 1 root root   526248 Sep 25 21:30 designer-qt5
-rwxr-xr-x 1 root root    93992 Sep 25 21:30 desktop-file-edit
-rwxr-xr-x 1 root root    93992 Sep 25 21:30 desktop-file-install
-rwxr-xr-x 1 root root    81936 Sep 25 21:30 desktop-file-validate
-rwxr-xr-x 1 root root    92080 Sep 25 21:30 desktoptojson
-rwxr-xr-x 1 root root   160384 Sep 25 21:30 devdump
-rwxr-xr-x 1 root root    71872 Sep 25 21:30 devhelp
-rwxr-xr-x 1 root root   137296 Sep 25 21:30 devlink
-rwxr-xr-x 1 root root    92760 Sep 25 21:30 df
-rwxr-xr-x 1 root root  2865536 Sep 25 21:30 dhclient
-rwxr-xr-x 1 root root    16366 Sep 25 21:30 dhclient-script
-r-xr-xr-x 1 root root   359168 Sep 25 21:30 dhcpcd
-rwxr-xr-x 1 root root   632648 Sep 25 21:30 diagtool
-rwxr-xr-x 1 root root    51040 Sep 25 21:30 dialog
-rwxr-xr-x 1 root root     5781 Sep 25 21:30 dialog-config
-rwxr-xr-x 1 root root   215176 Sep 25 21:30 diff
-rwxr-xr-x 1 root root    63496 Sep 25 21:30 diff3
-rwxr-xr-x 1 root root    14088 Sep 25 21:30 diffimg
-rwxr-xr-x 1 root root    14200 Sep 25 21:30 dijkstra
-rwxr-xr-x 1 root root    24312 Sep 25 21:30 dinoshade
-rwxr-xr-x 1 root root   137680 Sep 25 21:30 dir
-rwxr-xr-x 1 root root    47088 Sep 25 21:30 dircolors
-rwxr-xr-x 1 root root   566728 Sep 25 21:30 dirmngr
-rwxr-xr-x 1 root root   117400 Sep 25 21:30 dirmngr-client
-rwxr-xr-x 1 root root    38888 Sep 25 21:30 dirname
-rwxr-xr-x 1 root root    14112 Sep 25 21:30 disable-paste
-rwxr-xr-x 1 root root       76 Sep 25 21:30 disco
-rwxr-xr-x 1 root root    14488 Sep 25 21:30 display
-rwxr-xr-x 1 root root    14112 Sep 25 21:30 display-buttons
-rwxr-xr-x 1 root root    14112 Sep 25 21:30 display-coords
-rwxr-xr-x 1 root root    19568 Sep 25 21:30 dissolve
-rwxr-xr-x 1 root root    42832 Sep 25 21:30 djpeg
-rwxr-xr-x 1 root root    30672 Sep 25 21:30 djvm
-rwxr-xr-x 1 root root    26576 Sep 25 21:30 djvmcvt
-rwxr-xr-x 1 root root    10351 Sep 25 21:30 djvudigital
-rwxr-xr-x 1 root root    22480 Sep 25 21:30 djvudump
-rwxr-xr-x 1 root root    34768 Sep 25 21:30 djvuextract
-rwxr-xr-x 1 root root    75744 Sep 25 21:30 djvumake
-rwxr-xr-x 1 root root    14280 Sep 25 21:30 djvups
-rwxr-xr-x 1 root root   125024 Sep 25 21:30 djvused
-rwxr-xr-x 1 root root    42960 Sep 25 21:30 djvuserve
-rwxr-xr-x 1 root root    26576 Sep 25 21:30 djvutoxml
-rwxr-xr-x 1 root root    14112 Sep 25 21:30 djvutxt
-rwxr-xr-x 1 root root    22480 Sep 25 21:30 djvuxmlparser
-rwxr-xr-x 1 root root   140915 Sep 25 21:30 dkms
-rwxr-xr-x 1 root root    11288 Sep 25 21:30 dlist-begin-call-end
-rwxr-xr-x 1 root root    11288 Sep 25 21:30 dlist-dangling
-rwxr-xr-x 1 root root    11288 Sep 25 21:30 dlist-degenerate
-rwxr-xr-x 1 root root    11288 Sep 25 21:30 dlist-edgeflag
-rwxr-xr-x 1 root root    11288 Sep 25 21:30 dlist-edgeflag-dangling
-rwxr-xr-x 1 root root    11288 Sep 25 21:30 dlist-flat-tri
-rwxr-xr-x 1 root root    11320 Sep 25 21:30 dlist-mat-tri
-rwxr-xr-x 1 root root    11288 Sep 25 21:30 dlist-recursive-call
-rwxr-xr-x 1 root root    10016 Sep 25 21:30 dlist_test
-rwxr-xr-x 1 root root    11288 Sep 25 21:30 dlist-tri-flat-tri
-rwxr-xr-x 1 root root    11336 Sep 25 21:30 dlist-tri-mat-tri
-rwxr-xr-x 1 root root      140 Sep 25 21:30 dmcs
-rwxr-xr-x 1 root root  6788464 Sep 25 21:30 dmd
-rwxr-xr-x 1 root root    80176 Sep 25 21:30 dmesg
-r-xr-xr-x 1 root root    52496 Sep 25 21:30 dmeventd
-rwxr-xr-x 1 root root    10112 Sep 25 21:30 dmevent_tool
-rwxr-xr-x 1 root root    20688 Sep 25 21:30 dmraid
-r-xr-xr-x 1 root root   177904 Sep 25 21:30 dmsetup
-r-xr-xr-x 1 root root   177904 Sep 25 21:30 dmstats
-rwxr-xr-x 1 root root    22304 Sep 25 21:30 dm-tool
-rwxr-xr-x 1 root root    14400 Sep 25 21:30 dmxaddinput
-rwxr-xr-x 1 root root    14392 Sep 25 21:30 dmxaddscreen
-rwxr-xr-x 1 root root    14464 Sep 25 21:30 dmxinfo
-rwxr-xr-x 1 root root    14400 Sep 25 21:30 dmxreconfig
-rwxr-xr-x 1 root root    14392 Sep 25 21:30 dmxresize
-rwxr-xr-x 1 root root    14392 Sep 25 21:30 dmxrminput
-rwxr-xr-x 1 root root    14392 Sep 25 21:30 dmxrmscreen
-rwxr-xr-x 1 root root    39216 Sep 25 21:30 dmxtodmx
-rwxr-xr-x 1 root root    14528 Sep 25 21:30 dmxwininfo
-rwxr-xr-x 1 root root    55328 Sep 25 21:30 dnsdomainname
-rwxr-xr-x 1 root root    59232 Sep 25 21:30 dosfsck
-rwxr-xr-x 1 root root    59232 Sep 25 21:30 dosfslabel
-rwxr-xr-x 1 root root    14088 Sep 25 21:30 dot
-rwxr-xr-x 1 root root    38936 Sep 25 21:30 dot2gxl
-rwxr-xr-x 1 root root    18312 Sep 25 21:30 dot_builtins
-rwxr-xr-x 1 root root       93 Sep 25 21:30 dotnet
-rwxr-xr-x 1 root root     2085 Sep 25 21:30 dotty
-rwxr-xr-x 1 root root    10016 Sep 25 21:30 dpipe
-rwxr-xr-x 1 root root    11384 Sep 25 21:30 draw2arrays
-rwxr-xr-x 1 root root    11368 Sep 25 21:30 drawarrays
-rwxr-xr-x 1 root root    11400 Sep 25 21:30 drawelements
-rwxr-xr-x 1 root root    11288 Sep 25 21:30 drawelements-large
-rwxr-xr-x 1 root root     1254 Sep 25 21:30 drawing
-rwxr-xr-x 1 root root    15392 Sep 25 21:30 drawoverhead
-rwxr-xr-x 1 root root    19488 Sep 25 21:30 drawpix
-rwxr-xr-x 1 root root    11400 Sep 25 21:30 drawrange
-rwxr-xr-x 1 root root     2515 Sep 25 21:30 drbl-3n-conf
-rwxr-xr-x 1 root root     8448 Sep 25 21:30 drbl4imp
-rwxr-xr-x 1 root root     2010 Sep 25 21:30 drbl-add-vir-netdev
-rwxr-xr-x 1 root root    16573 Sep 25 21:30 drbl-all-service
-rwxr-xr-x 1 root root     7083 Sep 25 21:30 drbl-aoe-img-dump
-rwxr-xr-x 1 root root     8746 Sep 25 21:30 drbl-aoe-serv
-rwxr-xr-x 1 root root     1480 Sep 25 21:30 drbl-autologin-env-reset
-rwxr-xr-x 1 root root     1891 Sep 25 21:30 drbl-autologin-home-reset
-rwxr-xr-x 1 root root     4669 Sep 25 21:30 drbl-bug-report
-rwxr-xr-x 1 root root     3446 Sep 25 21:30 drbl-clean-autologin-account
-rwxr-xr-x 1 root root      900 Sep 25 21:30 drbl-clean-dhcpd-leases
-rwxr-xr-x 1 root root     2469 Sep 25 21:30 drbl-client-reautologin
-rwxr-xr-x 1 root root     4135 Sep 25 21:30 drbl-client-root-passwd
-rwxr-xr-x 1 root root     5818 Sep 25 21:30 drbl-client-service
-rwxr-xr-x 1 root root    51105 Sep 25 21:30 drbl-client-switch
-rwxr-xr-x 1 root root     4409 Sep 25 21:30 drbl-client-system-select
-rwxr-xr-x 1 root root     6860 Sep 25 21:30 drbl-collect-mac
-rwxr-xr-x 1 root root     5662 Sep 25 21:30 drbl-cp
-rwxr-xr-x 1 root root     5662 Sep 25 21:30 drbl-cp-host
-rwxr-xr-x 1 root root     8354 Sep 25 21:30 drbl-cp-user
-rwxr-xr-x 1 root root    10893 Sep 25 21:30 drbl-doit
-rwxr-xr-x 1 root root     9843 Sep 25 21:30 drbl-find-dhcp-srv
-rwxr-xr-x 1 root root     5662 Sep 25 21:30 drbl-fuh
-rwxr-xr-x 1 root root     5662 Sep 25 21:30 drbl-fuh-get
-rwxr-xr-x 1 root root     5662 Sep 25 21:30 drbl-fuh-put
-rwxr-xr-x 1 root root     5662 Sep 25 21:30 drbl-fuh-rm
-rwxr-xr-x 1 root root     8354 Sep 25 21:30 drbl-fuu
-rwxr-xr-x 1 root root     8354 Sep 25 21:30 drbl-fuu-get
-rwxr-xr-x 1 root root     8354 Sep 25 21:30 drbl-fuu-put
-rwxr-xr-x 1 root root     8354 Sep 25 21:30 drbl-fuu-rm
-rwxr-xr-x 1 root root     7729 Sep 25 21:30 drbl-gen-grub-efi-nb
-rwxr-xr-x 1 root root     5662 Sep 25 21:30 drbl-get-host
-rwxr-xr-x 1 root root     8354 Sep 25 21:30 drbl-get-user
-rwxr-xr-x 1 root root     5662 Sep 25 21:30 drbl-host-cp
-rwxr-xr-x 1 root root     5662 Sep 25 21:30 drbl-host-get
-rwxr-xr-x 1 root root     5662 Sep 25 21:30 drbl-host-rm
-rwxr-xr-x 1 root root    17391 Sep 25 21:30 drbl-live
-rwxr-xr-x 1 root root     2856 Sep 25 21:30 drbl-live-boinc
-rwxr-xr-x 1 root root     3357 Sep 25 21:30 drbl-live-hadoop
-rwxr-xr-x 1 root root    32929 Sep 25 21:30 drbl-login-switch
-rwxr-xr-x 1 root root    23069 Sep 25 21:30 drbl-netinstall
-rwxr-xr-x 1 root root    31805 Sep 25 21:30 drbl-ocs
-rwxr-xr-x 1 root root     7941 Sep 25 21:30 drbl-ocs-live-prep
-rwxr-xr-x 1 root root     4007 Sep 25 21:30 drbl-proxy-dhcp
-rwxr-xr-x 1 root root   228766 Sep 25 21:30 drblpush
-rwxr-xr-x 1 root root    11883 Sep 25 21:30 drbl-pxelinux-passwd
-rwxr-xr-x 1 root root     5662 Sep 25 21:30 drbl-rm-host
-rwxr-xr-x 1 root root     8354 Sep 25 21:30 drbl-rm-user
-rwxr-xr-x 1 root root      908 Sep 25 21:30 drbl-run-parts
-rwxr-xr-x 1 root root    43212 Sep 25 21:30 drbl-sl
-rwxr-xr-x 1 root root   182741 Sep 25 21:30 drblsrv
-rwxr-xr-x 1 root root    17809 Sep 25 21:30 drblsrv-offline
-rwxr-xr-x 1 root root     1600 Sep 25 21:30 drbl-swapfile
-rwxr-xr-x 1 root root     3136 Sep 25 21:30 drbl-syslinux-efi-pxe-sw
-rwxr-xr-x 1 root root     6806 Sep 25 21:30 drbl-syslinux-netinstall
-rwxr-xr-x 1 root root     3385 Sep 25 21:30 drbl-uriparse
-rwxr-xr-x 1 root root     6711 Sep 25 21:30 drbl-useradd
-rwxr-xr-x 1 root root     3612 Sep 25 21:30 drbl-useradd-file
-rwxr-xr-x 1 root root     4298 Sep 25 21:30 drbl-useradd-list
-rwxr-xr-x 1 root root     5409 Sep 25 21:30 drbl-useradd-range
-rwxr-xr-x 1 root root     8354 Sep 25 21:30 drbl-user-cp
-rwxr-xr-x 1 root root     7276 Sep 25 21:30 drbl-userdel
-rwxr-xr-x 1 root root     3612 Sep 25 21:30 drbl-userdel-file
-rwxr-xr-x 1 root root     4298 Sep 25 21:30 drbl-userdel-list
-rwxr-xr-x 1 root root     5409 Sep 25 21:30 drbl-userdel-range
-rwxr-xr-x 1 root root     4354 Sep 25 21:30 drbl-user-env-reset
-rwxr-xr-x 1 root root     8354 Sep 25 21:30 drbl-user-get
-rwxr-xr-x 1 root root     8354 Sep 25 21:30 drbl-user-rm
-rwxr-xr-x 1 root root     5703 Sep 25 21:30 drbl-wakeonlan
-rwxr-xr-x 1 root root    67408 Sep 25 21:30 drill
-rwxr-xr-x 1 root root    22352 Sep 25 21:30 driverless
-rwxr-xr-x 1 root root   423752 Sep 25 21:30 dsymutil
-rwxr-xr-x 1 root root       78 Sep 25 21:30 dtd2rng
-rwxr-xr-x 1 root root       78 Sep 25 21:30 dtd2xsd
-rwxr-xr-x 1 root root       74 Sep 25 21:30 dtsdec
-rwxr-xr-x 1 root root   178184 Sep 25 21:30 du
-rwxr-xr-x 1 root root    10136 Sep 25 21:30 dubdv
-rwxr-xr-x 1 root root     2524 Sep 25 21:30 ducktype
-rwxr-xr-x 1 root root    30552 Sep 25 21:30 dumpe2fs
-rwxr-xr-x 1 root root    50976 Sep 25 21:30 dumpexfat
-rwxr-xr-x 1 root root   170224 Sep 25 21:30 dump.f2fs
-rwxr-xr-x 1 root root    14304 Sep 25 21:30 dumpiso
-rwxr-xr-x 1 root root   178464 Sep 25 21:30 dumpkeys
-rwxr-xr-x 1 root root    14088 Sep 25 21:30 dumpmscat
-rwxr-xr-x 1 root root    14160 Sep 25 21:30 dumpseg
-rwxr-xr-x 1 root root    18184 Sep 25 21:30 dumpsexp
-rwxr-xr-x 1 root root    18344 Sep 25 21:30 dvb-fe-tool
-rwxr-xr-x 1 root root    14176 Sep 25 21:30 dvb-format-convert
-rwxr-xr-x 1 root root    35272 Sep 25 21:30 dvbv5-daemon
-rwxr-xr-x 1 root root    26464 Sep 25 21:30 dvbv5-scan
-rwxr-xr-x 1 root root    38752 Sep 25 21:30 dvbv5-zap
-rwxr-xr-x 1 root root    22456 Sep 25 21:30 dvconnect
-rwxr-xr-x 1 root root    14232 Sep 25 21:30 dvcont
-rwxr-xr-x 1 root root     1023 Sep 25 21:30 dvipdf
-rwxr-xr-x 1 root root    34640 Sep 25 21:30 dwebp
-rwxr-xr-x 1 root root  3005056 Sep 25 21:30 dwp
-rw-r--r-- 1 gavr users       0 Sep 25 21:31 z1
total 118480
-rwxr-xr-x 1 root root    35056 Sep 25 21:30 a52dec
-rwxr-xr-x 1 root root    14168 Sep 25 21:30 aafire
-rwxr-xr-x 1 root root    14168 Sep 25 21:30 aainfo
-rwxr-xr-x 1 root root     1395 Sep 25 21:30 aalib-config
-rwxr-xr-x 1 root root    14168 Sep 25 21:30 aasavefont
-rwxr-xr-x 1 root root    14168 Sep 25 21:30 aatest
-rwxr-xr-x 1 root root    55376 Sep 25 21:30 ab
-rwxr-xr-x 1 root root    14176 Sep 25 21:30 abw2html
-rwxr-xr-x 1 root root    14176 Sep 25 21:30 abw2raw
-rwxr-xr-x 1 root root    14176 Sep 25 21:30 abw2text
-rwxr-xr-x 1 root root    51512 Sep 25 21:30 acceleration_speed
-rwxr-xr-x 1 root root    14328 Sep 25 21:30 accessdb
-rwxr-xr-x 1 root root    36478 Sep 25 21:30 aclocal
-rwxr-xr-x 1 root root    36478 Sep 25 21:30 aclocal-1.16
-rwxr-xr-x 1 root root    14088 Sep 25 21:30 acyclic
-rwxr-xr-x 1 root root    34792 Sep 25 21:30 addftinfo
-rwxr-xr-x 1 root root     3075 Sep 25 21:30 addgnupghome
-rwxr-xr-x 1 root root    26552 Sep 25 21:30 addpart
-rwxr-xr-x 1 root root    31024 Sep 25 21:30 addr2line
-rwxr-xr-x 1 root root     5227 Sep 25 21:30 affixcompress
-rwxr-xr-x 1 root root   165785 Sep 25 21:30 afmtodit
-rwxr-xr-x 1 root root    14096 Sep 25 21:30 ag-backup
-rwxr-xr-x 1 root root    26480 Sep 25 21:30 agentxtrap
-rwxr-xr-x 1 root root    64600 Sep 25 21:30 agetty
-rwxr-xr-x 1 root root    22288 Sep 25 21:30 ag-tool
-rwxr-xr-x 1 root root       73 Sep 25 21:30 al
-rwxr-xr-x 1 root root       73 Sep 25 21:30 al2
-rwxr-xr-x 1 root root     2686 Sep 25 21:30 al-compositor
-rwxr-xr-x 1 root root     4790 Sep 25 21:30 al-info
-rwxr-xr-x 1 root root     2903 Sep 25 21:30 al-polybar-session
-rwxr-xr-x 1 root root    18376 Sep 25 21:30 alsa_delay
-rwxr-xr-x 1 root root    34920 Sep 25 21:30 alsa_in
-rwxr-xr-x 1 root root    18376 Sep 25 21:30 alsa_loopback
-rwxr-xr-x 1 root root    34912 Sep 25 21:30 alsa_out
-rwxr-xr-x 1 root root   190488 Sep 25 21:30 alsoft-config
-rwxr-xr-x 1 root root     2668 Sep 25 21:30 amuFormat.sh
-rwxr-xr-x 1 root root    18216 Sep 25 21:30 analyseplugin
-rwxr-xr-x 1 root root    14208 Sep 25 21:30 analyze
-rwxr-xr-x 1 root root    14488 Sep 25 21:30 animate
-rwxr-xr-x 1 root root    14112 Sep 25 21:30 annotate
-rwxr-xr-x 1 root root     7049 Sep 25 21:30 any2djvu
-rwxr-xr-x 1 root root    27332 Sep 25 21:30 anytovcd.sh
-rwxr-xr-x 1 root root   564864 Sep 25 21:30 aomdec
-rwxr-xr-x 1 root root   618992 Sep 25 21:30 aomenc
-rwxr-xr-x 1 root root     3395 Sep 25 21:30 apachectl
-rwxr-xr-x 1 root root     2217 Sep 25 21:30 applygnupgdefaults
-rwxr-xr-x 1 root root    18216 Sep 25 21:30 applyplugin
-rwxr-xr-x 1 root root    79656 Sep 25 21:30 appstream-builder
-rwxr-xr-x 1 root root    22312 Sep 25 21:30 appstream-compose
-rwxr-xr-x 1 root root    87848 Sep 25 21:30 appstream-util
-rwxr-xr-x 1 root root     6802 Sep 25 21:30 apr-1-config
-rwxr-xr-x 1 root root    52032 Sep 25 21:30 apropos
-rwxr-xr-x 1 root root     6207 Sep 25 21:30 apu-1-config
-rwxr-xr-x 1 root root    23511 Sep 25 21:30 apxs
-rwxr-xr-x 1 root root    63480 Sep 25 21:30 ar
-rwxr-xr-x 1 root root    15448 Sep 25 21:30 arbfplight
-rwxr-xr-x 1 root root    15464 Sep 25 21:30 arbfslight
-rwxr-xr-x 1 root root    15384 Sep 25 21:30 arbocclude
-rwxr-xr-x 1 root root    15392 Sep 25 21:30 arbocclude2
-rwxr-xr-x 1 root root     8649 Sep 25 21:30 arch-chroot
-rwxr-xr-x 1 root root    93390 Sep 25 21:30 archlabs-installer
-rwxr-xr-x 1 root root     4964 Sep 25 21:30 archlinux-java
-rwxr-xr-x 1 root root      317 Sep 25 21:30 arch-meson
-rwxr-xr-x 1 root root    46856 Sep 25 21:30 argon2
-rwxr-xr-x 1 root root    71552 Sep 25 21:30 arpd
-rwxr-xr-x 1 root root    26512 Sep 25 21:30 arping
-rwxr-xr-x 1 root root   220208 Sep 25 21:30 arptables-nft
-rwxr-xr-x 1 root root   220208 Sep 25 21:30 arptables-nft-restore
-rwxr-xr-x 1 root root   220208 Sep 25 21:30 arptables-nft-save
-rwxr-xr-x 1 root root    23584 Sep 25 21:30 array
-rwxr-xr-x 1 root root   810760 Sep 25 21:30 as
-rwxr-xr-x 1 root root     2178 Sep 25 21:30 asar
-rwxr-xr-x 1 root root    34736 Sep 25 21:30 aserver
-rwxr-xr-x 1 root root  6297784 Sep 25 21:30 asm2wasm
-rwxr-xr-x 1 root root    14160 Sep 25 21:30 asn1Coding
-rwxr-xr-x 1 root root    14160 Sep 25 21:30 asn1Decoding
-rwxr-xr-x 1 root root    14160 Sep 25 21:30 asn1Parser
-rwxr-xr-x 1 root root   162024 Sep 25 21:30 aspell
-rwxr-xr-x 1 root root     2044 Sep 25 21:30 aspell-import
-rwxr-xr-x 1 root root  1374624 Sep 25 21:30 assistant
-rwxr-xr-x 1 root root  1374624 Sep 25 21:30 assistant-qt5
-rwxr-xr-x 1 root root    10016 Sep 25 21:30 attr
-rwxr-x--- 1 root root    42840 Sep 25 21:30 audispd
-rwxr-xr-x 1 root root    30544 Sep 25 21:30 audispd-zos-remote
-rwxr-xr-x 1 root root    46952 Sep 25 21:30 audisp-remote
-rwxr-xr-x 1 root root    42904 Sep 25 21:30 auditctl
-rwxr-xr-x 1 root root   124952 Sep 25 21:30 auditd
-rwxr-x--- 1 root root     3791 Sep 25 21:30 augenrules
-rwxr-xr-x 1 root root    22824 Sep 25 21:30 augmatch
-rwxr-xr-x 1 root root    14112 Sep 25 21:30 augparse
-rwxr-xr-x 1 root root    27096 Sep 25 21:30 augtool
-rwxr-xr-x 1 root root    18184 Sep 25 21:30 aulast
-rwxr-xr-x 1 root root    14088 Sep 25 21:30 aulastlog
-rwxr-xr-x 1 root root   116624 Sep 25 21:30 aureport
-rwxr-xr-x 1 root root   120736 Sep 25 21:30 ausearch
-rwxr-xr-x 1 root root    14088 Sep 25 21:30 ausyscall
-rwxr-xr-x 1 root root    14768 Sep 25 21:30 autoconf
-rwxr-xr-x 1 root root     8534 Sep 25 21:30 autoheader
-rwxr-xr-x 1 root root    32181 Sep 25 21:30 autom4te
-rwxr-xr-x 1 root root   257949 Sep 25 21:30 automake
-rwxr-xr-x 1 root root   257949 Sep 25 21:30 automake-1.16
-rwxr-xr-x 1 root root    26995 Sep 25 21:30 autopoint
-rwxr-xr-x 1 root root    21066 Sep 25 21:30 autoreconf
-rwxr-xr-x 1 root root    17124 Sep 25 21:30 autoscan
-rwxr-xr-x 1 root root    33872 Sep 25 21:30 autoupdate
-rwxr-xr-x 1 root root    18184 Sep 25 21:30 autrace
-rwxr-xr-x 1 root root    34640 Sep 25 21:30 auvirt
-rwxr-xr-x 1 root root    38776 Sep 25 21:30 avahi-autoipd
-rwxr-xr-x 1 root root     7179 Sep 25 21:30 avahi-bookmarks
-rwxr-xr-x 1 root root    30584 Sep 25 21:30 avahi-browse
-rwxr-xr-x 1 root root    30584 Sep 25 21:30 avahi-browse-domains
-rwxr-xr-x 1 root root   137352 Sep 25 21:30 avahi-daemon
-rwxr-xr-x 1 root root    13152 Sep 25 21:30 avahi-discover
-rwxr-xr-x 1 root root    18208 Sep 25 21:30 avahi-discover-standalone
-rwxr-xr-x 1 root root    22376 Sep 25 21:30 avahi-dnsconfd
-rwxr-xr-x 1 root root    22384 Sep 25 21:30 avahi-publish
-rwxr-xr-x 1 root root    22384 Sep 25 21:30 avahi-publish-address
-rwxr-xr-x 1 root root    22384 Sep 25 21:30 avahi-publish-service
-rwxr-xr-x 1 root root    14192 Sep 25 21:30 avahi-resolve
-rwxr-xr-x 1 root root    14192 Sep 25 21:30 avahi-resolve-address
-rwxr-xr-x 1 root root    14192 Sep 25 21:30 avahi-resolve-host-name
-rwxr-xr-x 1 root root    14192 Sep 25 21:30 avahi-set-host-name
-rwxr-xr-x 1 root root   698440 Sep 25 21:30 awk
-rwxr-xr-x 1 root root    59400 Sep 25 21:30 b2sum
-rwxr-xr-x 1 root root    61304 Sep 25 21:30 b43-fwcutter
-rwxr-xr-x 1 root root    34584 Sep 25 21:30 badblocks
-rwxr-xr-x 1 root root   194592 Sep 25 21:30 baobab
-rwxr-xr-x 1 root root     9362 Sep 25 21:30 baph
-rwxr-xr-x 1 root root    42984 Sep 25 21:30 base32
-rwxr-xr-x 1 root root    42984 Sep 25 21:30 base64
-rwxr-xr-x 1 root root    38888 Sep 25 21:30 basename
-rwxr-xr-x 1 root root    51176 Sep 25 21:30 basenc
-rwxr-xr-x 1 root root   903440 Sep 25 21:30 bash
-r-xr-xr-x 1 root root     6930 Sep 25 21:30 bashbug
-rwxr-xr-x 1 root root    92656 Sep 25 21:30 bc
-rwxr-xr-x 1 root root    18232 Sep 25 21:30 bcomps
-rwxr-xr-x 1 root root     4006 Sep 25 21:30 bdftogd
-rwxr-xr-x 1 root root    42888 Sep 25 21:30 bdftopcf
-rwxr-xr-x 1 root root    14088 Sep 25 21:30 bdftruncate
-rwxr-xr-x 1 root root    14112 Sep 25 21:30 bd_info
-rwxr-xr-x 1 root root    23896 Sep 25 21:30 bezier
-rwxr-xr-x 1 root root   426432 Sep 25 21:30 bison
-rwxr-xr-x 1 root root    23592 Sep 25 21:30 bitmap
-rwxr-xr-x 1 root root    18376 Sep 25 21:30 bjoentegaard
-rwxr-xr-x 1 root root    23632 Sep 25 21:30 blinking-teapot
-r-xr-xr-x 1 root root    14836 Sep 25 21:30 blkdeactivate
-rwxr-xr-x 1 root root    30792 Sep 25 21:30 blkdiscard
-rwxr-xr-x 1 root root   116832 Sep 25 21:30 blkid
-rwxr-xr-x 1 root root    51064 Sep 25 21:30 blkmapd
-rwxr-xr-x 1 root root    71752 Sep 25 21:30 blkzone
-rwxr-xr-x 1 root root    63552 Sep 25 21:30 blockdev
-rwxr-xr-x 1 root root    10104 Sep 25 21:30 block-rate-estim
-rwxr-xr-x 1 root root    30728 Sep 25 21:30 bluetooth-sendto
-rwxr-xr-x 1 root root   112952 Sep 25 21:30 boltctl
-rwxr-xr-x 1 root root    23285 Sep 25 21:30 bond2team
-rwxr-xr-x 1 root root    59336 Sep 25 21:30 bootctl
-rwxr-xr-x 1 root root    11336 Sep 25 21:30 bounce
-rwxr-xr-x 1 root root    15592 Sep 25 21:30 boxdumper
-rwxr-xr-x 1 root root    24136 Sep 25 21:30 brick
-rwxr-xr-x 1 root root   100264 Sep 25 21:30 bridge
-rwxr-xr-x 1 root root   822728 Sep 25 21:30 brltty
-rwxr-xr-x 1 root root   153904 Sep 25 21:30 brltty-atb
-rwxr-xr-x 1 root root   153824 Sep 25 21:30 brltty-cldr
-rw-r--r-- 1 root root     4531 Sep 25 21:30 brltty-config
-rwxr-xr-x 1 root root   240080 Sep 25 21:30 brltty-ctb
-rwxr-xr-x 1 root root   436608 Sep 25 21:30 brltty-ktb
-rwxr-xr-x 1 root root   178408 Sep 25 21:30 brltty-lscmds
-rwxr-xr-x 1 root root   149792 Sep 25 21:30 brltty-lsinc
-rwxr-xr-x 1 root root   219432 Sep 25 21:30 brltty-morse
-rwxr-xr-x 1 root root   186704 Sep 25 21:30 brltty-trtxt
-rwxr-xr-x 1 root root   215568 Sep 25 21:30 brltty-ttb
-rwxr-xr-x 1 root root   223592 Sep 25 21:30 brltty-tune
-rwxr-xr-x 1 root root   112472 Sep 25 21:30 broadwayd
-rwxr-xr-x 1 root root   755744 Sep 25 21:30 brotli
-rwxr-xr-x 1 root root    10024 Sep 25 21:30 bs2bconvert
-rwxr-xr-x 1 root root    14120 Sep 25 21:30 bs2bstream
-rwxr-xr-x 1 root root     4908 Sep 25 21:30 bscalc
-rwxr-xr-x 1 root root    14184 Sep 25 21:30 bsdcat
-rwxr-xr-x 1 root root    42856 Sep 25 21:30 bsdcpio
-rwxr-xr-x 1 root root    67432 Sep 25 21:30 bsdtar
-rwxr-xr-x 1 root root    18280 Sep 25 21:30 bshell
-rwxr-xr-x 1 root root    18280 Sep 25 21:30 bssh
-rwxr-xr-x 1 root root   209776 Sep 25 21:30 btcflash
-rwxr-xr-x 1 root root   912856 Sep 25 21:30 btrfs
-rwxr-xr-x 1 root root   912856 Sep 25 21:30 btrfsck
-rwxr-xr-x 1 root root   514968 Sep 25 21:30 btrfs-convert
-rwxr-xr-x 1 root root   482264 Sep 25 21:30 btrfs-find-root
-rwxr-xr-x 1 root root   510872 Sep 25 21:30 btrfs-image
-rwxr-xr-x 1 root root   478104 Sep 25 21:30 btrfs-map-logical
-rwxr-xr-x 1 root root   478104 Sep 25 21:30 btrfs-select-super
-rwxr-xr-x 1 root root   486296 Sep 25 21:30 btrfstune
-rwxr-xr-x 1 root root   419752 Sep 25 21:30 bugpoint
-rwxr-xr-x 1 root root    32880 Sep 25 21:30 bump
-rwxr-xr-x 1 root root    38744 Sep 25 21:30 bunzip2
-rwxr-xr-x 1 root root    83912 Sep 25 21:30 busctl
-rwxr-xr-x 1 root root    18280 Sep 25 21:30 bvnc
-rwxr-xr-x 1 root root    55160 Sep 25 21:30 bwrap
-rwxr-xr-x 1 root root    38744 Sep 25 21:30 bzcat
-rwxr-xr-x 1 root root     2140 Sep 25 21:30 bzdiff
-rwxr-xr-x 1 root root     2054 Sep 25 21:30 bzgrep
-rwxr-xr-x 1 root root    38744 Sep 25 21:30 bzip2
-rwxr-xr-x 1 root root    14088 Sep 25 21:30 bzip2recover
-rwxr-xr-x 1 root root     1259 Sep 25 21:30 bzmore
-rwxr-xr-x 1 root root     4523 Sep 25 21:30 bzr
-rwxr-xr-x 1 root root    22488 Sep 25 21:30 bzz
-rwxr-xr-x 1 root root  1137032 Sep 25 21:30 c++
-rwxr-xr-x 1 root root    51192 Sep 25 21:30 c44
-rwxr-xr-x 1 root root      224 Sep 25 21:30 c89
-rwxr-xr-x 1 root root      215 Sep 25 21:30 c99
-rwxr-xr-x 1 root root    72024 Sep 25 21:30 cabextract
-rwxr-xr-x 1 root root    14240 Sep 25 21:30 cacaclock
-rwxr-xr-x 1 root root     1645 Sep 25 21:30 caca-config
-rwxr-xr-x 1 root root   284488 Sep 25 21:30 cacademo
-rwxr-xr-x 1 root root    18192 Sep 25 21:30 cacafire
-rwxr-xr-x 1 root root    14096 Sep 25 21:30 cacaplay
-rwxr-xr-x 1 root root    14096 Sep 25 21:30 cacaserver
-rwxr-xr-x 1 root root    22376 Sep 25 21:30 cacaview
-rwxr-xr-x 1 root root  1437928 Sep 25 21:30 cache_check
-rwxr-xr-x 1 root root  1437928 Sep 25 21:30 cache_dump
-rwxr-xr-x 1 root root  1437928 Sep 25 21:30 cache_metadata_size
-rwxr-xr-x 1 root root  1437928 Sep 25 21:30 cache_repair
-rwxr-xr-x 1 root root  1437928 Sep 25 21:30 cache_restore
-rwxr-xr-x 1 root root  1437928 Sep 25 21:30 cache_writeback
-rwxr-xr-x 1 root root    83792 Sep 25 21:30 cairo-sphinx
-rwxr-xr-x 1 root root     3000 Sep 25 21:30 cairo-trace
-rwxr-xr-x 1 root root    63856 Sep 25 21:30 cal
-rwxr-xr-x 1 root root    18184 Sep 25 21:30 canberra-boot
-rwxr-xr-x 1 root root    18264 Sep 25 21:30 canberra-gtk-play
-rwxr-xr-x 1 root root    14088 Sep 25 21:30 cancel
-rwxr-xr-x 1 root root    26384 Sep 25 21:30 capsh
-rwxr-xr-x 1 root root    11288 Sep 25 21:30 captest
-rwxr-xr-x 1 root root    87968 Sep 25 21:30 captoinfo
-rwxr-xr-x 1 root root       77 Sep 25 21:30 caspol
-rwxr-xr-x 1 root root    38952 Sep 25 21:30 cat
-rwxr-xr-x 1 root root     3272 Sep 25 21:30 catchsegv
-rwxr-xr-x 1 root root    80704 Sep 25 21:30 catimg
-rwxr-xr-x 1 root root    39216 Sep 25 21:30 catman
-rwxr-xr-x 1 root root  1132936 Sep 25 21:30 cc
-rwxr-xr-x 1 root root    55120 Sep 25 21:30 ccache-swig
-rwxr-xr-x 1 root root    55120 Sep 25 21:30 ccache-swig-3
-rwxr-xr-x 1 root root       78 Sep 25 21:30 cccheck
-rwxr-xr-x 1 root root  5304272 Sep 25 21:30 ccmake
-rwxr-xr-x 1 root root    26424 Sep 25 21:30 ccomps
-rwxr-xr-x 1 root root       80 Sep 25 21:30 ccrewrite
-rwxr-xr-x 1 root root    18184 Sep 25 21:30 cd-convert
-rwxr-xr-x 1 root root    26384 Sep 25 21:30 cd-create-profile
-rwxr-xr-x 1 root root     2793 Sep 25 21:30 cdda2mp3
-rwxr-xr-x 1 root root     2808 Sep 25 21:30 cdda2ogg
-rwx--x--x 1 root root   383024 Sep 25 21:30 cdda2wav
-rwxr-xr-x 1 root root    38688 Sep 25 21:30 cdda-player
-rwxr-xr-x 1 root root    27672 Sep 25 21:30 cddb_query
-rwxr-xr-x 1 root root    26456 Sep 25 21:30 cd-drive
-rwxr-xr-x 1 root root    26384 Sep 25 21:30 cd-fix-profile
-rwxr-xr-x 1 root root    14096 Sep 25 21:30 cd-iccdump
-rwxr-xr-x 1 root root    46936 Sep 25 21:30 cd-info
-rwxr-xr-x 1 root root    22288 Sep 25 21:30 cd-it8
-rwxr-xr-x 1 root root    63360 Sep 25 21:30 cd-paranoia
-rwxr-xr-x 1 root root    60400 Sep 25 21:30 cdparanoia
-rwxr-xr-x 1 root root    14208 Sep 25 21:30 cdr2raw
-rwxr-xr-x 1 root root    14208 Sep 25 21:30 cdr2text
-rwxr-xr-x 1 root root    18304 Sep 25 21:30 cdr2xhtml
-rwxr-xr-x 1 root root    34648 Sep 25 21:30 cd-read
-rwx--x--x 1 root root   570352 Sep 25 21:30 cdrecord
-rwxr-xr-x 1 root root   182816 Sep 25 21:30 cec-compliance
-rwxr-xr-x 1 root root   303968 Sep 25 21:30 cec-ctl
-rwxr-xr-x 1 root root   116952 Sep 25 21:30 cec-follower
-rwxr-xr-x 1 root root    18488 Sep 25 21:30 celtdec
-rwxr-xr-x 1 root root    18512 Sep 25 21:30 celtdec051
-rwxr-xr-x 1 root root    23032 Sep 25 21:30 celtenc
-rwxr-xr-x 1 root root    22896 Sep 25 21:30 celtenc051
-rwxr-xr-x 1 root root       79 Sep 25 21:30 cert2spc
-rwxr-xr-x 1 root root       78 Sep 25 21:30 certmgr
-rwxr-xr-x 1 root root       80 Sep 25 21:30 cert-sync
-rwxr-xr-x 1 root root    38272 Sep 25 21:30 cert-to-efi-hash-list
-rwxr-xr-x 1 root root    32496 Sep 25 21:30 cert-to-efi-sig-list
-rwxr-xr-x 1 root root   326680 Sep 25 21:30 certtool
-rwxr-xr-x 1 root root   186704 Sep 25 21:30 certutil
-rwxr-xr-x 1 root root    96696 Sep 25 21:30 cfdisk
-rwxr-xr-x 1 root root    30576 Sep 25 21:30 c++filt
-rwxr-xr-x 1 root root   198616 Sep 25 21:30 cgdisk
-rwxr-xr-x 1 root root    14112 Sep 25 21:30 chacl
-rwxr-xr-x 1 root root    79696 Sep 25 21:30 chafa
-rwxr-xr-x 1 root root    71728 Sep 25 21:30 chage
-rwxr-xr-x 1 root root      387 Sep 25 21:30 chardetect
-rwxr-xr-x 1 root root      388 Sep 25 21:30 chardetect-py2
-rwxr-xr-x 1 root root    30592 Sep 25 21:30 chat
-rwxr-xr-x 1 root root    14096 Sep 25 21:30 chattr
-rwxr-xr-x 1 root root    63464 Sep 25 21:30 chcon
-rwxr-xr-x 1 root root    14160 Sep 25 21:30 chcp
-rwxr-xr-x 1 root root    43072 Sep 25 21:30 chcpu
-rwxr-xr-x 1 root root    25148 Sep 25 21:30 checkbandwidth
-rwxr-xr-x 1 root root    14088 Sep 25 21:30 checkgid
-rwxr-xr-x 1 root root     3096 Sep 25 21:30 checkupdates
-rwxr-xr-x 1 root root   260056 Sep 25 21:30 cheese
-rwxr-xr-x 1 root root    29181 Sep 25 21:30 chem
-rwxr-xr-x 1 root root    18216 Sep 25 21:30 chezdav
-rwxr-xr-x 1 root root    30784 Sep 25 21:30 chfn
-rwxr-xr-x 1 root root    59104 Sep 25 21:30 chgpasswd
-rwxr-xr-x 1 root root    67560 Sep 25 21:30 chgrp
-rwxr-xr-x 1 root root       79 Sep 25 21:30 chktrust
-rwxr-xr-x 1 root root    59456 Sep 25 21:30 chmem
-rwxr-xr-x 1 root root    63496 Sep 25 21:30 chmod
-rwxr-xr-x 1 root root    30672 Sep 25 21:30 chmorph
-rwxr-xr-x 1 root root    51264 Sep 25 21:30 choom
-rwxr-xr-x 1 root root    67560 Sep 25 21:30 chown
-rwxr-xr-x 1 root root    55040 Sep 25 21:30 chpasswd
-rwxr-xr-x 1 root root  9394192 Sep 25 21:30 chromedriver
-rwxr-xr-x 1 root root    14088 Sep 25 21:30 chromium
-rwxr-xr-x 1 root root    42984 Sep 25 21:30 chroot
-rwxr-xr-x 1 root root    34880 Sep 25 21:30 chrt
-rwxr-xr-x 1 root root    26688 Sep 25 21:30 chsh
-rwxr-xr-x 1 root root    14160 Sep 25 21:30 chvt
-rwxr-xr-x 1 root root    14464 Sep 25 21:30 cifscreds
-rwxr-xr-x 1 root root    90112 Sep 25 21:30 cifsdd
-rwxr-xr-x 1 root root    14184 Sep 25 21:30 cifs.idmap
-rwxr-xr-x 1 root root    30592 Sep 25 21:30 cifs.upcall
-rwxr-xr-x 1 root root   178640 Sep 25 21:30 c-index-test
-rwxr-xr-x 1 root root    14088 Sep 25 21:30 circo
-rwxr-xr-x 1 root root   124880 Sep 25 21:30 cjb2
-rwxr-xr-x 1 root root    51024 Sep 25 21:30 cjpeg
-rwxr-xr-x 1 root root    38888 Sep 25 21:30 cksum
-rwxr-xr-x 1 root root   137072 Sep 25 21:30 clang
-rwxr-xr-x 1 root root   137072 Sep 25 21:30 clang++
-rwxr-xr-x 1 root root   137072 Sep 25 21:30 clang-8
-rwxr-xr-x 1 root root    46944 Sep 25 21:30 clang-apply-replacements
-rwxr-xr-x 1 root root   264008 Sep 25 21:30 clang-change-namespace
-rwxr-xr-x 1 root root    38728 Sep 25 21:30 clang-check
-rwxr-xr-x 1 root root   137072 Sep 25 21:30 clang-cl
-rwxr-xr-x 1 root root   137072 Sep 25 21:30 clang-cpp
-rwxr-xr-x 1 root root    91984 Sep 25 21:30 clangd
-rwxr-xr-x 1 root root   264008 Sep 25 21:30 clang-doc
-rwxr-xr-x 1 root root    30536 Sep 25 21:30 clang-extdef-mapping
-rwxr-xr-x 1 root root    67400 Sep 25 21:30 clang-format
-rwxr-xr-x 1 root root    71496 Sep 25 21:30 clang-import-test
-rwxr-xr-x 1 root root    91976 Sep 25 21:30 clang-include-fixer
-rwxr-xr-x 1 root root    59216 Sep 25 21:30 clang-offload-bundler
-rwxr-xr-x 1 root root   251720 Sep 25 21:30 clang-query
-rwxr-xr-x 1 root root   120648 Sep 25 21:30 clang-refactor
-rwxr-xr-x 1 root root    67400 Sep 25 21:30 clang-rename
-rwxr-xr-x 1 root root    38728 Sep 25 21:30 clang-reorder-fields
-rwxr-xr-x 1 root root   272200 Sep 25 21:30 clang-tidy
-rwxr-xr-x 1 root root     4222 Sep 25 21:30 clazy
-rwxr-xr-x 1 root root   300928 Sep 25 21:30 clazy-standalone
-rwxr-xr-x 1 root root    14224 Sep 25 21:30 cleanupdelta
-rwxr-xr-x 1 root root    14128 Sep 25 21:30 clear
-rwxr-xr-x 1 root root    11288 Sep 25 21:30 clear-color
-rwxr-xr-x 1 root root    11296 Sep 25 21:30 clear-fbo
-rwxr-xr-x 1 root root    15392 Sep 25 21:30 clear-fbo-scissor
-rwxr-xr-x 1 root root    11296 Sep 25 21:30 clear-fbo-tex
-rwxr-xr-x 1 root root    11288 Sep 25 21:30 clear-random
-rwxr-xr-x 1 root root    11288 Sep 25 21:30 clear-repeat
-rwxr-xr-x 1 root root    11296 Sep 25 21:30 clear-scissor
-rwxr-xr-x 1 root root    11304 Sep 25 21:30 clearspd
-rwxr-xr-x 1 root root    11296 Sep 25 21:30 clear-undefined
-rwxr-xr-x 1 root root   168696 Sep 25 21:30 clit
-rwxr-xr-x 1 root root    18320 Sep 25 21:30 clockdiff
-rwxr-xr-x 1 root root     5851 Sep 25 21:30 clonezilla
-rwxr-xr-x 1 root root   564664 Sep 25 21:30 cluster
-rwxr-xr-x 1 root root  5722416 Sep 25 21:30 cmake
-rwxr-xr-x 1 root root  5660384 Sep 25 21:30 cmake-gui
-rwxr-xr-x 1 root root   169968 Sep 25 21:30 cmis-client
-rwxr-xr-x 1 root root    51080 Sep 25 21:30 cmp
-rwxr-xr-x 1 root root   108392 Sep 25 21:30 cmsutil
-rwxr-xr-x 1 root root    14208 Sep 25 21:30 cmx2raw
-rwxr-xr-x 1 root root    14208 Sep 25 21:30 cmx2text
-rwxr-xr-x 1 root root    18304 Sep 25 21:30 cmx2xhtml
-rwxr-xr-x 1 root root    11475 Sep 25 21:30 cnvt-ocs-dev
-rwxr-xr-x 1 root root      103 Sep 25 21:30 code
-rwxr-xr-x 1 root root      103 Sep 25 21:30 code-oss
-rwxr-xr-x 1 root root    30784 Sep 25 21:30 col
-rwxr-xr-x 1 root root    14400 Sep 25 21:30 colcrt
-rwxr-xr-x 1 root root    55056 Sep 25 21:30 colormgr
-rwxr-xr-x 1 root root    30784 Sep 25 21:30 colrm
-rwxr-xr-x 1 root root    51272 Sep 25 21:30 column
-rwxr-xr-x 1 root root    43016 Sep 25 21:30 comm
-rwxr-xr-x 1 root root    14488 Sep 25 21:30 compare
-rwxr-xr-x 1 root root     1341 Sep 25 21:30 compile_et
-rwxr-xr-x 1 root root    14488 Sep 25 21:30 composite
-rwxr-xr-x 1 root root      413 Sep 25 21:30 conf.py
-rwxr-xr-x 1 root root    14488 Sep 25 21:30 conjure
-rwxr-xr-x 1 root root     3032 Sep 25 21:30 conplay
-rwxr-xr-x 1 root root    14488 Sep 25 21:30 convert
-rwxr-xr-x 1 root root      188 Sep 25 21:30 convert-mans
-rwxr-xr-x 1 root root    23576 Sep 25 21:30 convolutions
-rwxr-xr-x 1 root root  1685528 Sep 25 21:30 cool-retro-term
-rwxr-xr-x 1 root root   124936 Sep 25 21:30 copy
-rwxr-xr-x 1 root root    22448 Sep 25 21:30 copydatabase
-rwxr-xr-x 1 root root    19488 Sep 25 21:30 copypix
-rwxr-xr-x 1 root root    19488 Sep 25 21:30 copytex
-rwxr-xr-x 1 root root    42840 Sep 25 21:30 coredumpctl
-rwxr-xr-x 1 root root    10008 Sep 25 21:30 corrupt_mpeg2
-rwxr-xr-x 1 root root    14080 Sep 25 21:30 count
-rwxr-xr-x 1 root root  5869488 Sep 25 21:30 cpack
-rwxr-xr-x 1 root root   133072 Sep 25 21:30 cpaldjvu
-rwxr-xr-x 1 root root   157048 Sep 25 21:30 cpio
-rwxr-xr-x 1 root root  1132936 Sep 25 21:30 cpp
-rwxr-xr-x 1 root root    31176 Sep 25 21:30 cpufetch
-rwxr-xr-x 1 root root    14120 Sep 25 21:30 cracklib-check
-rwxr-xr-x 1 root root      231 Sep 25 21:30 cracklib-format
-rwxr-xr-x 1 root root    14120 Sep 25 21:30 cracklib-packer
-rwxr-xr-x 1 root root    14120 Sep 25 21:30 cracklib-unpacker
-rwxr-xr-x 1 root root      990 Sep 25 21:30 create-cracklib-dict
-rwxr-xr-x 1 root root    20368 Sep 25 21:30 create-debian-live
-rwxr-xr-x 1 root root    53305 Sep 25 21:30 create-drbl-live
-rwxr-xr-x 1 root root    11305 Sep 25 21:30 create-drbl-live-by-pkg
-rwxr-xr-x 1 root root     9992 Sep 25 21:30 createfp
-rwxr-xr-x 1 root root    53565 Sep 25 21:30 create-gparted-live
-rwxr-xr-x 1 root root     9519 Sep 25 21:30 create-ocs-tmp-img
-rwxr-xr-x 1 root root    23400 Sep 25 21:30 create-ubuntu-live
-rwxr-xr-x 1 root root    11288 Sep 25 21:30 createwin
-rwxr-xr-x 1 root root     6188 Sep 25 21:30 c_rehash
-rwxr-xr-x 1 root root       80 Sep 25 21:30 crlupdate
-rwxr-xr-x 1 root root   120688 Sep 25 21:30 crlutil
-rwxr-xr-x 1 root root     1329 Sep 25 21:30 croco-0.6-config
-rwxr-xr-x 1 root root   134112 Sep 25 21:30 cryptsetup
-rwxr-xr-x 1 root root    99144 Sep 25 21:30 cryptsetup-reencrypt
-rwxr-xr-x 1 root root      103 Sep 25 21:30 csc
-rwxr-xr-x 1 root root   161744 Sep 25 21:30 csepdjvu
-rwxr-xr-x 1 root root       77 Sep 25 21:30 csharp
-rwxr-xr-x 1 root root      103 Sep 25 21:30 csi
-rwxr-xr-x 1 root root   120840 Sep 25 21:30 csplit
-rwxr-xr-x 1 root root    26408 Sep 25 21:30 csslint-0.6
-rwxr-xr-x 1 root root   968552 Sep 25 21:30 ctags
-rwxr-xr-x 1 root root  6740176 Sep 25 21:30 ctest
-rwxr-xr-x 1 root root    38984 Sep 25 21:30 ctrlaltdel
-rwxr-xr-x 1 root root    22648 Sep 25 21:30 ctstat
-rwxr-xr-x 1 root root    23664 Sep 25 21:30 cubemap
-rwxr-xr-x 1 root root    19536 Sep 25 21:30 cuberender
-rwxr-xr-x 1 root root    14088 Sep 25 21:30 cupsaccept
-rwxr-xr-x 1 root root   223368 Sep 25 21:30 cups-browsed
-rwxr-xr-x 1 root root     2450 Sep 25 21:30 cups-config
-rwxr-xr-x 1 root root    14160 Sep 25 21:30 cupsctl
-rwx------ 1 root root   457040 Sep 25 21:30 cupsd
-rwxr-xr-x 1 root root    14088 Sep 25 21:30 cupsdisable
-rwxr-xr-x 1 root root    14088 Sep 25 21:30 cupsenable
-rwxr-xr-x 1 root root    43064 Sep 25 21:30 cupsfilter
-rwxr-xr-x 1 root root    14088 Sep 25 21:30 cupsreject
-rwxr-xr-x 1 root root    63312 Sep 25 21:30 cupstestppd
-rwxr-xr-x 1 root root   186192 Sep 25 21:30 curl
-rwxr-xr-x 1 root root     6087 Sep 25 21:30 curl-config
-rwxr-xr-x 1 root root    14088 Sep 25 21:30 curve_keygen
-rwxr-xr-x 1 root root    43016 Sep 25 21:30 cut
-rwxr-xr-x 1 root root       45 Sep 25 21:30 cvlc
-rwxr-xr-x 1 root root     1562 Sep 25 21:30 cv-ocsimg-v1-to-v2
-rwxr-xr-x 1 root root   686664 Sep 25 21:30 cvs
-rwxr-xr-x 1 root root    14032 Sep 25 21:30 cvsbug
-rwxr-xr-x 1 root root    18552 Sep 25 21:30 cvt
-rwxr-xr-x 1 root root   260168 Sep 25 21:30 cvtsudoers
-rwxr-xr-x 1 root root    59216 Sep 25 21:30 cwebp
-rwxr-xr-x 1 root root    14392 Sep 25 21:30 cx18-ctl
-rwxr-xr-x 1 root root    30816 Sep 25 21:30 cxpm
-rwxr-xr-x 1 root root   108552 Sep 25 21:30 date
-rwxr-xr-x 1 root root    30544 Sep 25 21:30 dav1d
-rwxr-xr-x 1 root root    26448 Sep 25 21:30 dav1dplay
-rwxr-xr-x 1 root root    43008 Sep 25 21:30 daxctl
-rwxr-xr-x 1 root root    14088 Sep 25 21:30 dazzle-list-counters
-r-xr-xr-x 1 root root    10016 Sep 25 21:30 db_archive
-r-xr-xr-x 1 root root    10016 Sep 25 21:30 db_checkpoint
-r-xr-xr-x 1 root root    14112 Sep 25 21:30 db_deadlock
-r-xr-xr-x 1 root root    14112 Sep 25 21:30 db_dump
-r-xr-xr-x 1 root root    14112 Sep 25 21:30 db_hotbackup
-r-xr-xr-x 1 root root    26400 Sep 25 21:30 db_load
-r-xr-xr-x 1 root root    14112 Sep 25 21:30 db_log_verify
-rwxr-xr-x 1 root root     8925 Sep 25 21:30 dbmmanage
-r-xr-xr-x 1 root root    30496 Sep 25 21:30 db_printlog
-r-xr-xr-x 1 root root    10016 Sep 25 21:30 db_recover
-r-xr-xr-x 1 root root    14112 Sep 25 21:30 db_replicate
-r-xr-xr-x 1 root root    14112 Sep 25 21:30 db_stat
-r-xr-xr-x 1 root root    18216 Sep 25 21:30 db_tuner
-r-xr-xr-x 1 root root    10016 Sep 25 21:30 db_upgrade
-rwxr-xr-x 1 root root    92048 Sep 25 21:30 dbus-binding-tool
-rwxr-xr-x 1 root root    14088 Sep 25 21:30 dbus-cleanup-sockets
-rwxr-xr-x 1 root root   219376 Sep 25 21:30 dbus-daemon
-rwxr-xr-x 1 root root    22280 Sep 25 21:30 dbus-launch
-rwxr-xr-x 1 root root    26376 Sep 25 21:30 dbus-monitor
-rwxr-xr-x 1 root root    14088 Sep 25 21:30 dbus-run-session
-rwxr-xr-x 1 root root    30472 Sep 25 21:30 dbus-send
-rwxr-xr-x 1 root root    26456 Sep 25 21:30 dbus-test-tool
-rwxr-xr-x 1 root root    14088 Sep 25 21:30 dbus-update-activation-environment
-rwxr-xr-x 1 root root    14088 Sep 25 21:30 dbus-uuidgen
-r-xr-xr-x 1 root root    10016 Sep 25 21:30 db_verify
-rwxr-xr-x 1 root root    26600 Sep 25 21:30 dbwrap_tool
-rwxr-xr-x 1 root root    51080 Sep 25 21:30 dc
-rwxr-xr-x 1 root root    14112 Sep 25 21:30 dc1394_reset_bus
-rwxr-xr-x 1 root root    31112 Sep 25 21:30 dcadec
-rwxr-xr-x 1 root root    51024 Sep 25 21:30 dconf
-rwxr-xr-x 1 root root    22368 Sep 25 21:30 dcraw_emu
-rwxr-xr-x 1 root root    14088 Sep 25 21:30 dcraw_half
-rwxr-xr-x 1 root root    51105 Sep 25 21:30 dcs
-rwxr-xr-x 1 root root    75792 Sep 25 21:30 dd
-rwxr-xr-x 1 root root    96720 Sep 25 21:30 ddjvu
-rwxr-xr-x 1 root root    14160 Sep 25 21:30 deallocvt
-rwxr-xr-x 1 root root   226568 Sep 25 21:30 debugfs
-rwxr-xr-x 1 root root    75544 Sep 25 21:30 debugfs.reiserfs
-rwxr-xr-x 1 root root    75544 Sep 25 21:30 debugreiserfs
-rwxr-xr-x 1 root root    23000 Sep 25 21:30 dec265
-rwxr-xr-x 1 root root    30848 Sep 25 21:30 decode_tm6000
-rwxr-xr-x 1 root root   170224 Sep 25 21:30 defrag.f2fs
-rwxr-xr-x 1 root root    18672 Sep 25 21:30 delaunay
-rwxr-xr-x 1 root root    26552 Sep 25 21:30 delpart
-rwxr-xr-x 1 root root   161856 Sep 25 21:30 depmod
-rwxr-xr-x 1 root root    26984 Sep 25 21:30 derb
-rwxr-xr-x 1 root root    23584 Sep 25 21:30 deriv
-rwxr-xr-x 1 root root   526248 Sep 25 21:30 designer
-rwxr-xr-x 1 root root   526248 Sep 25 21:30 designer-qt5
-rwxr-xr-x 1 root root    93992 Sep 25 21:30 desktop-file-edit
-rwxr-xr-x 1 root root    93992 Sep 25 21:30 desktop-file-install
-rwxr-xr-x 1 root root    81936 Sep 25 21:30 desktop-file-validate
-rwxr-xr-x 1 root root    92080 Sep 25 21:30 desktoptojson
-rwxr-xr-x 1 root root   160384 Sep 25 21:30 devdump
-rwxr-xr-x 1 root root    71872 Sep 25 21:30 devhelp
-rwxr-xr-x 1 root root   137296 Sep 25 21:30 devlink
-rwxr-xr-x 1 root root    92760 Sep 25 21:30 df
-rwxr-xr-x 1 root root  2865536 Sep 25 21:30 dhclient
-rwxr-xr-x 1 root root    16366 Sep 25 21:30 dhclient-script
-r-xr-xr-x 1 root root   359168 Sep 25 21:30 dhcpcd
-rwxr-xr-x 1 root root   632648 Sep 25 21:30 diagtool
-rwxr-xr-x 1 root root    51040 Sep 25 21:30 dialog
-rwxr-xr-x 1 root root     5781 Sep 25 21:30 dialog-config
-rwxr-xr-x 1 root root   215176 Sep 25 21:30 diff
-rwxr-xr-x 1 root root    63496 Sep 25 21:30 diff3
-rwxr-xr-x 1 root root    14088 Sep 25 21:30 diffimg
-rwxr-xr-x 1 root root    14200 Sep 25 21:30 dijkstra
-rwxr-xr-x 1 root root    24312 Sep 25 21:30 dinoshade
-rwxr-xr-x 1 root root   137680 Sep 25 21:30 dir
-rwxr-xr-x 1 root root    47088 Sep 25 21:30 dircolors
-rwxr-xr-x 1 root root   566728 Sep 25 21:30 dirmngr
-rwxr-xr-x 1 root root   117400 Sep 25 21:30 dirmngr-client
-rwxr-xr-x 1 root root    38888 Sep 25 21:30 dirname
-rwxr-xr-x 1 root root    14112 Sep 25 21:30 disable-paste
-rwxr-xr-x 1 root root       76 Sep 25 21:30 disco
-rwxr-xr-x 1 root root    14488 Sep 25 21:30 display
-rwxr-xr-x 1 root root    14112 Sep 25 21:30 display-buttons
-rwxr-xr-x 1 root root    14112 Sep 25 21:30 display-coords
-rwxr-xr-x 1 root root    19568 Sep 25 21:30 dissolve
-rwxr-xr-x 1 root root    42832 Sep 25 21:30 djpeg
-rwxr-xr-x 1 root root    30672 Sep 25 21:30 djvm
-rwxr-xr-x 1 root root    26576 Sep 25 21:30 djvmcvt
-rwxr-xr-x 1 root root    10351 Sep 25 21:30 djvudigital
-rwxr-xr-x 1 root root    22480 Sep 25 21:30 djvudump
-rwxr-xr-x 1 root root    34768 Sep 25 21:30 djvuextract
-rwxr-xr-x 1 root root    75744 Sep 25 21:30 djvumake
-rwxr-xr-x 1 root root    14280 Sep 25 21:30 djvups
-rwxr-xr-x 1 root root   125024 Sep 25 21:30 djvused
-rwxr-xr-x 1 root root    42960 Sep 25 21:30 djvuserve
-rwxr-xr-x 1 root root    26576 Sep 25 21:30 djvutoxml
-rwxr-xr-x 1 root root    14112 Sep 25 21:30 djvutxt
-rwxr-xr-x 1 root root    22480 Sep 25 21:30 djvuxmlparser
-rwxr-xr-x 1 root root   140915 Sep 25 21:30 dkms
-rwxr-xr-x 1 root root    11288 Sep 25 21:30 dlist-begin-call-end
-rwxr-xr-x 1 root root    11288 Sep 25 21:30 dlist-dangling
-rwxr-xr-x 1 root root    11288 Sep 25 21:30 dlist-degenerate
-rwxr-xr-x 1 root root    11288 Sep 25 21:30 dlist-edgeflag
-rwxr-xr-x 1 root root    11288 Sep 25 21:30 dlist-edgeflag-dangling
-rwxr-xr-x 1 root root    11288 Sep 25 21:30 dlist-flat-tri
-rwxr-xr-x 1 root root    11320 Sep 25 21:30 dlist-mat-tri
-rwxr-xr-x 1 root root    11288 Sep 25 21:30 dlist-recursive-call
-rwxr-xr-x 1 root root    10016 Sep 25 21:30 dlist_test
-rwxr-xr-x 1 root root    11288 Sep 25 21:30 dlist-tri-flat-tri
-rwxr-xr-x 1 root root    11336 Sep 25 21:30 dlist-tri-mat-tri
-rwxr-xr-x 1 root root      140 Sep 25 21:30 dmcs
-rwxr-xr-x 1 root root  6788464 Sep 25 21:30 dmd
-rwxr-xr-x 1 root root    80176 Sep 25 21:30 dmesg
-r-xr-xr-x 1 root root    52496 Sep 25 21:30 dmeventd
-rwxr-xr-x 1 root root    10112 Sep 25 21:30 dmevent_tool
-rwxr-xr-x 1 root root    20688 Sep 25 21:30 dmraid
-r-xr-xr-x 1 root root   177904 Sep 25 21:30 dmsetup
-r-xr-xr-x 1 root root   177904 Sep 25 21:30 dmstats
-rwxr-xr-x 1 root root    22304 Sep 25 21:30 dm-tool
-rwxr-xr-x 1 root root    14400 Sep 25 21:30 dmxaddinput
-rwxr-xr-x 1 root root    14392 Sep 25 21:30 dmxaddscreen
-rwxr-xr-x 1 root root    14464 Sep 25 21:30 dmxinfo
-rwxr-xr-x 1 root root    14400 Sep 25 21:30 dmxreconfig
-rwxr-xr-x 1 root root    14392 Sep 25 21:30 dmxresize
-rwxr-xr-x 1 root root    14392 Sep 25 21:30 dmxrminput
-rwxr-xr-x 1 root root    14392 Sep 25 21:30 dmxrmscreen
-rwxr-xr-x 1 root root    39216 Sep 25 21:30 dmxtodmx
-rwxr-xr-x 1 root root    14528 Sep 25 21:30 dmxwininfo
-rwxr-xr-x 1 root root    55328 Sep 25 21:30 dnsdomainname
-rwxr-xr-x 1 root root    59232 Sep 25 21:30 dosfsck
-rwxr-xr-x 1 root root    59232 Sep 25 21:30 dosfslabel
-rwxr-xr-x 1 root root    14088 Sep 25 21:30 dot
-rwxr-xr-x 1 root root    38936 Sep 25 21:30 dot2gxl
-rwxr-xr-x 1 root root    18312 Sep 25 21:30 dot_builtins
-rwxr-xr-x 1 root root       93 Sep 25 21:30 dotnet
-rwxr-xr-x 1 root root     2085 Sep 25 21:30 dotty
-rwxr-xr-x 1 root root    10016 Sep 25 21:30 dpipe
-rwxr-xr-x 1 root root    11384 Sep 25 21:30 draw2arrays
-rwxr-xr-x 1 root root    11368 Sep 25 21:30 drawarrays
-rwxr-xr-x 1 root root    11400 Sep 25 21:30 drawelements
-rwxr-xr-x 1 root root    11288 Sep 25 21:30 drawelements-large
-rwxr-xr-x 1 root root     1254 Sep 25 21:30 drawing
-rwxr-xr-x 1 root root    15392 Sep 25 21:30 drawoverhead
-rwxr-xr-x 1 root root    19488 Sep 25 21:30 drawpix
-rwxr-xr-x 1 root root    11400 Sep 25 21:30 drawrange
-rwxr-xr-x 1 root root     2515 Sep 25 21:30 drbl-3n-conf
-rwxr-xr-x 1 root root     8448 Sep 25 21:30 drbl4imp
-rwxr-xr-x 1 root root     2010 Sep 25 21:30 drbl-add-vir-netdev
-rwxr-xr-x 1 root root    16573 Sep 25 21:30 drbl-all-service
-rwxr-xr-x 1 root root     7083 Sep 25 21:30 drbl-aoe-img-dump
-rwxr-xr-x 1 root root     8746 Sep 25 21:30 drbl-aoe-serv
-rwxr-xr-x 1 root root     1480 Sep 25 21:30 drbl-autologin-env-reset
-rwxr-xr-x 1 root root     1891 Sep 25 21:30 drbl-autologin-home-reset
-rwxr-xr-x 1 root root     4669 Sep 25 21:30 drbl-bug-report
-rwxr-xr-x 1 root root     3446 Sep 25 21:30 drbl-clean-autologin-account
-rwxr-xr-x 1 root root      900 Sep 25 21:30 drbl-clean-dhcpd-leases
-rwxr-xr-x 1 root root     2469 Sep 25 21:30 drbl-client-reautologin
-rwxr-xr-x 1 root root     4135 Sep 25 21:30 drbl-client-root-passwd
-rwxr-xr-x 1 root root     5818 Sep 25 21:30 drbl-client-service
-rwxr-xr-x 1 root root    51105 Sep 25 21:30 drbl-client-switch
-rwxr-xr-x 1 root root     4409 Sep 25 21:30 drbl-client-system-select
-rwxr-xr-x 1 root root     6860 Sep 25 21:30 drbl-collect-mac
-rwxr-xr-x 1 root root     5662 Sep 25 21:30 drbl-cp
-rwxr-xr-x 1 root root     5662 Sep 25 21:30 drbl-cp-host
-rwxr-xr-x 1 root root     8354 Sep 25 21:30 drbl-cp-user
-rwxr-xr-x 1 root root    10893 Sep 25 21:30 drbl-doit
-rwxr-xr-x 1 root root     9843 Sep 25 21:30 drbl-find-dhcp-srv
-rwxr-xr-x 1 root root     5662 Sep 25 21:30 drbl-fuh
-rwxr-xr-x 1 root root     5662 Sep 25 21:30 drbl-fuh-get
-rwxr-xr-x 1 root root     5662 Sep 25 21:30 drbl-fuh-put
-rwxr-xr-x 1 root root     5662 Sep 25 21:30 drbl-fuh-rm
-rwxr-xr-x 1 root root     8354 Sep 25 21:30 drbl-fuu
-rwxr-xr-x 1 root root     8354 Sep 25 21:30 drbl-fuu-get
-rwxr-xr-x 1 root root     8354 Sep 25 21:30 drbl-fuu-put
-rwxr-xr-x 1 root root     8354 Sep 25 21:30 drbl-fuu-rm
-rwxr-xr-x 1 root root     7729 Sep 25 21:30 drbl-gen-grub-efi-nb
-rwxr-xr-x 1 root root     5662 Sep 25 21:30 drbl-get-host
-rwxr-xr-x 1 root root     8354 Sep 25 21:30 drbl-get-user
-rwxr-xr-x 1 root root     5662 Sep 25 21:30 drbl-host-cp
-rwxr-xr-x 1 root root     5662 Sep 25 21:30 drbl-host-get
-rwxr-xr-x 1 root root     5662 Sep 25 21:30 drbl-host-rm
-rwxr-xr-x 1 root root    17391 Sep 25 21:30 drbl-live
-rwxr-xr-x 1 root root     2856 Sep 25 21:30 drbl-live-boinc
-rwxr-xr-x 1 root root     3357 Sep 25 21:30 drbl-live-hadoop
-rwxr-xr-x 1 root root    32929 Sep 25 21:30 drbl-login-switch
-rwxr-xr-x 1 root root    23069 Sep 25 21:30 drbl-netinstall
-rwxr-xr-x 1 root root    31805 Sep 25 21:30 drbl-ocs
-rwxr-xr-x 1 root root     7941 Sep 25 21:30 drbl-ocs-live-prep
-rwxr-xr-x 1 root root     4007 Sep 25 21:30 drbl-proxy-dhcp
-rwxr-xr-x 1 root root   228766 Sep 25 21:30 drblpush
-rwxr-xr-x 1 root root    11883 Sep 25 21:30 drbl-pxelinux-passwd
-rwxr-xr-x 1 root root     5662 Sep 25 21:30 drbl-rm-host
-rwxr-xr-x 1 root root     8354 Sep 25 21:30 drbl-rm-user
-rwxr-xr-x 1 root root      908 Sep 25 21:30 drbl-run-parts
-rwxr-xr-x 1 root root    43212 Sep 25 21:30 drbl-sl
-rwxr-xr-x 1 root root   182741 Sep 25 21:30 drblsrv
-rwxr-xr-x 1 root root    17809 Sep 25 21:30 drblsrv-offline
-rwxr-xr-x 1 root root     1600 Sep 25 21:30 drbl-swapfile
-rwxr-xr-x 1 root root     3136 Sep 25 21:30 drbl-syslinux-efi-pxe-sw
-rwxr-xr-x 1 root root     6806 Sep 25 21:30 drbl-syslinux-netinstall
-rwxr-xr-x 1 root root     3385 Sep 25 21:30 drbl-uriparse
-rwxr-xr-x 1 root root     6711 Sep 25 21:30 drbl-useradd
-rwxr-xr-x 1 root root     3612 Sep 25 21:30 drbl-useradd-file
-rwxr-xr-x 1 root root     4298 Sep 25 21:30 drbl-useradd-list
-rwxr-xr-x 1 root root     5409 Sep 25 21:30 drbl-useradd-range
-rwxr-xr-x 1 root root     8354 Sep 25 21:30 drbl-user-cp
-rwxr-xr-x 1 root root     7276 Sep 25 21:30 drbl-userdel
-rwxr-xr-x 1 root root     3612 Sep 25 21:30 drbl-userdel-file
-rwxr-xr-x 1 root root     4298 Sep 25 21:30 drbl-userdel-list
-rwxr-xr-x 1 root root     5409 Sep 25 21:30 drbl-userdel-range
-rwxr-xr-x 1 root root     4354 Sep 25 21:30 drbl-user-env-reset
-rwxr-xr-x 1 root root     8354 Sep 25 21:30 drbl-user-get
-rwxr-xr-x 1 root root     8354 Sep 25 21:30 drbl-user-rm
-rwxr-xr-x 1 root root     5703 Sep 25 21:30 drbl-wakeonlan
-rwxr-xr-x 1 root root    67408 Sep 25 21:30 drill
-rwxr-xr-x 1 root root    22352 Sep 25 21:30 driverless
-rwxr-xr-x 1 root root   423752 Sep 25 21:30 dsymutil
-rwxr-xr-x 1 root root       78 Sep 25 21:30 dtd2rng
-rwxr-xr-x 1 root root       78 Sep 25 21:30 dtd2xsd
-rwxr-xr-x 1 root root       74 Sep 25 21:30 dtsdec
-rwxr-xr-x 1 root root   178184 Sep 25 21:30 du
-rwxr-xr-x 1 root root    10136 Sep 25 21:30 dubdv
-rwxr-xr-x 1 root root     2524 Sep 25 21:30 ducktype
-rwxr-xr-x 1 root root    30552 Sep 25 21:30 dumpe2fs
-rwxr-xr-x 1 root root    50976 Sep 25 21:30 dumpexfat
-rwxr-xr-x 1 root root   170224 Sep 25 21:30 dump.f2fs
-rwxr-xr-x 1 root root    14304 Sep 25 21:30 dumpiso
-rwxr-xr-x 1 root root   178464 Sep 25 21:30 dumpkeys
-rwxr-xr-x 1 root root    14088 Sep 25 21:30 dumpmscat
-rwxr-xr-x 1 root root    14160 Sep 25 21:30 dumpseg
-rwxr-xr-x 1 root root    18184 Sep 25 21:30 dumpsexp
-rwxr-xr-x 1 root root    18344 Sep 25 21:30 dvb-fe-tool
-rwxr-xr-x 1 root root    14176 Sep 25 21:30 dvb-format-convert
-rwxr-xr-x 1 root root    35272 Sep 25 21:30 dvbv5-daemon
-rwxr-xr-x 1 root root    26464 Sep 25 21:30 dvbv5-scan
-rwxr-xr-x 1 root root    38752 Sep 25 21:30 dvbv5-zap
-rwxr-xr-x 1 root root    22456 Sep 25 21:30 dvconnect
-rwxr-xr-x 1 root root    14232 Sep 25 21:30 dvcont
-rwxr-xr-x 1 root root     1023 Sep 25 21:30 dvipdf
-rwxr-xr-x 1 root root    34640 Sep 25 21:30 dwebp
-rwxr-xr-x 1 root root  3005056 Sep 25 21:30 dwp
-rw-r--r-- 2 gavr users   38673 Sep 25 21:31 lnk
-rw-r--r-- 2 gavr users   38673 Sep 25 21:31 z1
-rw-r--r-- 1 gavr users       0 Sep 25 21:31 z2
